…
------------------------------------------------------------------------

#### Q11. 문서가 가장 많은 토픽의 연설문을 gamma가 높은 순으로 출력하고 내용이 비슷한지 살펴보세요.<a name="Q11"></a>

``` r
speeches_topic %>%
  filter(topic == 9) %>%
  arrange(-gamma) %>%
  select(content)
```

    ## # A tibble: 148 x 1
    ##    content                                                                      
    ##    <chr>                                                                        
    ##  1 안녕하십니까, 이처럼 따뜻하게 맞아주셔서 감사합니다. 나지모프 대외경제청장과 김용구 중소기업중앙회장을 비롯한 양국 경제인 여러분께 감사드~
    ##  2 존경하는 룰라 대통령 각하 내외분, 그리고 귀빈 여러분, 오늘 저녁, BRICs 국가로 세계의 주목을 받고 있는 브라질의 귀한 손님을 모~
    ##  3 존경하는 압델아지즈 부테플리카 알제리 대통령 각하, 그리고 내외 귀빈 여러분, 나와 우리 일행을 따뜻하게 맞아주신 각하와 알제리 국민 여~
    ##  4 존경하는 압둘 라흐만 알 라쉬드 상의연합회 회장, 압둘 라흐만 알 안카리 경협위원장, 손경식 대한상의 회장, 김선동 경협위원장, 그리고 ~
    ##  5 존경하는 바세스쿠 대통령 각하, 그리고 귀빈 여러분, 각하와 일행 여러분의 방한을 진심으로 환영합니다. 먼저, 루마니아가 올해 수차례의 ~
    ##  6 존경하는 일함 알리예프 대통령 각하 내외분, 그리고 귀빈 여러분, 나와 우리 일행을 환대해 주신 각하 내외분께 감사드립니다. 대한민국 대~
    ##  7 존경하는 키르츠네르 대통령 각하 내외분, 그리고 귀빈 여러분, 우리 내외와 일행에 대한 환대에 감사드립니다. 부에노스 아이레스는 매우 아~
    ##  8 존경하는,카리모프, 대통령 각하 내외분, 그리고 귀빈 여러분, 각하 내외분과 일행 여러분을 진심으로 환영합니다. 오늘 이 자리가 양국의 ~
    ##  9 2005년 5월 10일 존경하는 카리모프 대통령 각하 내외분, 그리고 귀빈 여러분, 우리 내외와 일행을 환대해주시고, 성대한 만찬을 베풀~
    ## 10 존경하는 빌토르 바비욱 루마니아 상공회의소 회장, 그리고 손경식 대한상의 회장을 비롯한 양국 경제계 지도자 여러분, 안녕하십니까, 이렇게~
    ## # ... with 138 more rows
