…
``` r
library(stringr)
library(textclean)
news_comment <- raw_news_comment %>%
  select(reply) %>%
  mutate(id = row_number(),
         reply = str_replace_all(reply, "[^가-힣]", " "),
         reply = str_squish(reply))

news_comment %>%
  select(id, reply)
```

    ## # A tibble: 1,200 x 2
    ##       id reply                                                                  
    ##    <int> <chr>                                                                  
    ##  1     1 국보소년단                                                             
    ##  2     2 아줌마가 들어도 좋더라                                                 
    ##  3     3 팩트체크 현재 빌보드 위 방탄소년단 위 위 위 위 위 위 위 위 위          
    ##  4     4 방탄소년단이 한국사람이라 너무 자랑스러워요 우리오래오래 함께하자      
    ##  5     5 대단한 월드 클래스는 다르네 좋은 소식 응원해요                         
    ##  6     6 정국오빠 생일과 더불어 빌보드 위기사라니 축제구나                      
    ##  7     7 정말 축하하고 응원하지만 집에서 여러 계정으로 스트리밍 돌리고 사재기하고 다른 팬덤 테러하는 애들은 개념보고 놀랐다 진짜…
    ##  8     8 기자는 자고 일어났지만 팬들은 못자고 발표 기다림                       
    ##  9     9 자랑스럽다 축하합니다                                                  
    ## 10    10 늘 응원하고 사랑합니다                                                 
    ## # … with 1,190 more rows
…
##### 한 행이 한 품사를 구성하도록 분리

``` r
library(tidyr)
comment_pos <- comment_pos %>%
  separate_rows(word, sep = "[+]")

comment_pos %>%
  select(word, reply)
```

    ## # A tibble: 20,851 x 2
    ##    word        reply                 
    ##    <chr>       <chr>                 
    ##  1 국보소년/nc 국보소년단            
    ##  2 단/ma       국보소년단            
    ##  3 아줌마/nc   아줌마가 들어도 좋더라
    ##  4 가/jc       아줌마가 들어도 좋더라
    ##  5 들/pv       아줌마가 들어도 좋더라
    ##  6 어도/ec     아줌마가 들어도 좋더라
    ##  7 좋/pa       아줌마가 들어도 좋더라
    ##  8 더/ep       아줌마가 들어도 좋더라
    ##  9 어/ec       아줌마가 들어도 좋더라
    ## 10 라/nc       아줌마가 들어도 좋더라
    ## # … with 20,841 more rows
…
``` r
comment <- comment_pos %>%
  separate_rows(word, sep = "[+]") %>%
  filter(str_detect(word, "/n|/pv|/pa")) %>%
  mutate(word = ifelse(str_detect(word, "/pv|/pa"),
                       str_replace(word, "/.*$", "다"),
                       str_remove(word, "/.*$"))) %>%
  filter(str_count(word) >= 2) %>%
  arrange(id)

comment %>%
  select(word, reply)
```

    ## # A tibble: 7,539 x 2
    ##    word       reply                                                            
    ##    <chr>      <chr>                                                            
    ##  1 국보소년   국보소년단                                                       
    ##  2 아줌마     아줌마가 들어도 좋더라                                           
    ##  3 들다       아줌마가 들어도 좋더라                                           
    ##  4 좋다       아줌마가 들어도 좋더라                                           
    ##  5 팩트체크   팩트체크 현재 빌보드 위 방탄소년단 위 위 위 위 위 위 위 위 위    
    ##  6 빌보드     팩트체크 현재 빌보드 위 방탄소년단 위 위 위 위 위 위 위 위 위    
    ##  7 방탄소년단 팩트체크 현재 빌보드 위 방탄소년단 위 위 위 위 위 위 위 위 위    
    ##  8 방탄소년단 방탄소년단이 한국사람이라 너무 자랑스러워요 우리오래오래 함께하자
    ##  9 한국사람   방탄소년단이 한국사람이라 너무 자랑스러워요 우리오래오래 함께하자
    ## 10 자랑       방탄소년단이 한국사람이라 너무 자랑스러워요 우리오래오래 함께하자
    ## # … with 7,529 more rows
…
##### 단어를 댓글별 한 행으로 결합

``` r
line_comment <- comment %>%
  group_by(id) %>%
  summarise(sentence = paste(word, collapse = " "))

line_comment
```

    ## # A tibble: 1,155 x 2
    ##       id sentence                                                             
    ##  * <int> <chr>                                                                
    ##  1     1 국보소년                                                             
    ##  2     2 아줌마 들다 좋다                                                     
    ##  3     3 팩트체크 빌보드 자랑                                                 
    ##  4     4 자랑 한국사람 자랑 우리오래오래 함께하다                             
    ##  5     5 대단 월드 클래스 다르다 좋다 소식 응원해                             
    ##  6     6 정국오빠 생일 더불다 빌보드 위기사 축제구                            
    ##  7     7 축하 응원하지 계정 스트리밍 돌리다 사재기 팬덤 테러하 개념보고 놀라다
    ##  8     8 기자 자다 일어나다 패다 못자 발표                                    
    ##  9     9 자랑 축하                                                            
    ## 10    10 응원 사랑합                                                          
    ## # … with 1,145 more rows
…
#### Q4. 댓글을 바이그램으로 토큰화한 다음 바이그램 단어쌍을 분리하세요.<a name="Q4"></a>

##### 바이그램 토큰화

``` r
bigram_comment <- line_comment %>%
  unnest_tokens(input = sentence,
                output = bigram,
                token = "ngrams",
                n = 2)

bigram_comment
```

    ## # A tibble: 6,541 x 2
    ##       id bigram               
    ##    <int> <chr>                
    ##  1     1 <NA>                 
    ##  2     2 아줌마 들다          
    ##  3     2 들다 좋다            
    ##  4     3 팩트체크 빌보드      
    ##  5     3 빌보드 자랑          
    ##  6     4 자랑 한국사람        
    ##  7     4 한국사람 자랑        
    ##  8     4 자랑 우리오래오래    
    ##  9     4 우리오래오래 함께하다
    ## 10     5 대단 월드            
    ## # … with 6,531 more rows

##### 바이그램 단어쌍 분리

``` r
bigram_seprated <- bigram_comment %>%
  separate(bigram, c("word1", "word2"), sep = " ")

bigram_seprated
```

    ## # A tibble: 6,541 x 3
    ##       id word1        word2       
    ##    <int> <chr>        <chr>       
    ##  1     1 <NA>         <NA>        
    ##  2     2 아줌마       들다        
    ##  3     2 들다         좋다        
    ##  4     3 팩트체크     빌보드      
    ##  5     3 빌보드       자랑        
    ##  6     4 자랑         한국사람    
    ##  7     4 한국사람     자랑        
    ##  8     4 자랑         우리오래오래
    ##  9     4 우리오래오래 함께하다    
    ## 10     5 대단         월드        
    ## # … with 6,531 more rows
…
-   빈도가 3 이상인 단어쌍만 사용하세요.

-   연결 중심성과 커뮤니티를 나타낸 변수를 추가하세요.

##### 단어쌍 빈도 구하기

``` r
pair_bigram <- bigram_seprated %>%
  count(word1, word2, sort = T) %>%
  na.omit()

pair_bigram
```

    ## # A tibble: 5,455 x 3
    ##    word1  word2     n
    ##    <chr>  <chr> <int>
    ##  1 축하   하다     43
    ##  2 자랑   축하     40
    ##  3 자랑   자랑     38
    ##  4 축하   자랑     35
    ##  5 대단   자랑     24
    ##  6 진짜   자랑     24
    ##  7 진짜   대단     23
    ##  8 자랑   진짜     17
    ##  9 빌보드 축하     14
    ## 10 군대   면제     13
    ## # … with 5,445 more rows
…
