…
``` r
library(dplyr)
library(stringr)
park <- raw_park %>%
  str_replace_all("[^가-힣]", " ") %>%  # 한글만 남기기
  str_squish() %>%                      # 연속된 공백 제거
  as_tibble()                           # tibble로 변환

park
```

    ## # A tibble: 96 x 1
    ##    value                                                                        
    ##    <chr>                                                                        
    ##  1 "존경하는 국민 여러분 저는 오늘 국민 한 분 한 분의 꿈이 이루어지는 행복한 대한민국을 만들기 위해 저의 모든 것을 바치겠다는 각오로 ~
    ##  2 ""                                                                           
    ##  3 "국민 여러분 저의 삶은 대한민국과 함께 해온 시간이었습니다 우리나라가 가난을 이기고 꿈을 이뤄가는 위대한 과정을 어린 시절부터 가슴깊이~
    ##  4 ""                                                                           
    ##  5 "어머니가 흉탄에 돌아가신 후 견딜 수 없는 고통과 어려움 속에서도 그 힘든 시간을 이겨낼 수 있었던 것은 어머니의 빈자리에 대한 책임감~
    ##  6 ""                                                                           
    ##  7 "그때부터 제 삶은 완전히 다른 길을 가야했습니다 개인의 삶 대신 국민과 함께 하는 공적인 삶이 시작되었습니다 각계각층의 국민들을 만나고~
    ##  8 ""                                                                           
    ##  9 "아버지를 잃는 또 다른 고통과 아픔을 겪고 저는 평범한 삶을 살고자 했습니다 하지만 국민들의 땀과 눈물로 이룩해 온 나라가 외환위기를 ~
    ## 10 ""                                                                           
    ## # ... with 86 more rows

##### 명사 기준 토큰화

``` r
library(tidytext)
library(KoNLP)
word_noun <- park %>%
  unnest_tokens(input = value,
                output = word,
                token = extractNoun)

word_noun
```

    ## # A tibble: 1,240 x 1
    ##    word  
    ##    <chr> 
    ##  1 존경  
    ##  2 하    
    ##  3 국민  
    ##  4 여러분
    ##  5 저    
    ##  6 오늘  
    ##  7 국민  
    ##  8 한    
    ##  9 분    
    ## 10 한    
    ## # ... with 1,230 more rows
…
#### Q4. 전처리하지 않은 연설문에서 연속된 공백을 제거하고 tibble 구조로 변환한 다음 문장 기준으로 토큰화하세요.<a name="Q4"></a>

``` r
sentences_park <- raw_park %>%
  str_squish() %>%                    # 연속된 공백 제거
  as_tibble() %>%                     # tibble로 변환
  unnest_tokens(input = value,
                output = sentence,
                token = "sentences")

sentences_park
```

    ## # A tibble: 117 x 1
    ##    sentence                                                                     
    ##    <chr>                                                                        
    ##  1 존경하는 국민 여러분!                                                        
    ##  2 저는 오늘, 국민 한 분 한 분의 꿈이 이루어지는 행복한 대한민국을 만들기 위해, 저의 모든 것을 바치겠다는 각오로 이 자리에 섰습니다.~
    ##  3 저 박근혜, 이번 18대 대통령선거 출마를 선언합니다.                           
    ##  4 국민 여러분!                                                                 
    ##  5 저의 삶은 대한민국과 함께 해온 시간이었습니다.                               
    ##  6 우리나라가 가난을 이기고, 꿈을 이뤄가는 위대한 과정을 어린 시절부터 가슴깊이 새겨왔습니다.~
    ##  7 어머니가 흉탄에 돌아가신 후, 견딜 수 없는 고통과 어려움 속에서도 그 힘든 시간을 이겨낼 수 있었던 것은, 어머니의 빈자리에 대한 책임~
    ##  8 그리고 늘 함께 해주시고 힘이 되어 주셨던 국민 여러분이 계셨기 때문이었습니다.
    ##  9 제가 그 막중한 일을 해내고, 고통을 이겨내고 다시 일어설 수 있었던 것은 모두 국민 여러분이 계셨기 때문이었습니다.~
    ## 10 그때부터 제 삶은 완전히 다른 길을 가야했습니다.                              
    ## # ... with 107 more rows
…
