Quiz_Part05.utf8
…
library(stringr)
library(textclean)
news_comment <- raw_news_comment %>%
  select(reply) %>%
  mutate(id = row_number(),
         reply = str_replace_all(reply, "[^-]", " "),
         reply = str_squish(reply))

news_comment %>%
  select(id, reply)

## # A tibble: 1,200 x 2
##       id reply                                                                  
##    <int> <chr>                                                                  
##  1     1                                                              
##  2     2                                                    
##  3     3                        
##  4     4            
##  5     5                                
##  6     6                            
##  7     7                
##  8     8                              
##  9     9                                                    
## 10    10                                                    
## #  with 1,190 more rows
…
library(tidyr)
comment_pos <- comment_pos %>%
  separate_rows(word, sep = "[+]")

comment_pos %>%
  select(word, reply)

## # A tibble: 20,851 x 2
##    word        reply                 
##    <chr>       <chr>                 
##  1 /nc             
##  2 /ma                   
##  3 /nc     
##  4 /jc         
##  5 /pv         
##  6 /ec       
##  7 /pa         
##  8 /ep         
##  9 /ec         
## 10 /nc         
## #  with 20,841 more rows
, ,  

comment <- comment_pos %>%
  separate_rows(word, sep = "[+]") %>%
  filter(str_detect(word, "/n|/pv|/pa")) %>%
  mutate(word = ifelse(str_detect(word, "/pv|/pa"),
                       str_replace(word, "/.*$", ""),
                       str_remove(word, "/.*$"))) %>%
  filter(str_count(word) >= 2) %>%
  arrange(id)

comment %>%
  select(word, reply)

## # A tibble: 7,539 x 2
##    word       reply                                                            
##    <chr>      <chr>                                                            
##  1                                                           
##  2                                                   
##  3                                                     
##  4                                                     
##  5                     
##  6                       
##  7                   
##  8       
##  9         
## 10             
## #  with 7,529 more rows
…
#  
comment <- comment %>%
  mutate(word = case_when(str_detect(word, "") ~ "",
                          str_detect(word, "") ~ "",
                          str_detect(word, "") ~ "",
                          str_detect(word, "") ~ "",
                          T ~ word))

line_comment <- comment %>%
  group_by(id) %>%
  summarise(sentence = paste(word, collapse = " "))

line_comment

## # A tibble: 1,155 x 2
##       id sentence                                                             
##  * <int> <chr>                                                                
##  1     1                                                              
##  2     2                                                        
##  3     3                                                    
##  4     4                                  
##  5     5                                    
##  6     6                                  
##  7     7          
##  8     8                                          
##  9     9                                                              
## 10    10                                                            
## #  with 1,145 more rows

Q4.       .

bigram_comment <- line_comment %>%
  unnest_tokens(input = sentence,
                output = bigram,
                token = "ngrams",
                n = 2)

bigram_comment

## # A tibble: 6,541 x 2
##       id bigram               
##    <int> <chr>                
##  1     1 <NA>                 
##  2     2            
##  3     2              
##  4     3        
##  5     3            
##  6     4          
##  7     4          
##  8     4      
##  9     4  
## 10     5              
## #  with 6,531 more rows

bigram_seprated <- bigram_comment %>%
  separate(bigram, c("word1", "word2"), sep = " ")

bigram_seprated

## # A tibble: 6,541 x 3
##       id word1        word2       
##    <int> <chr>        <chr>       
##  1     1 <NA>         <NA>        
##  2     2                
##  3     2                  
##  4     3            
##  5     3                
##  6     4              
##  7     4              
##  8     4          
##  9     4      
## 10     5                  
## #  with 6,531 more rows
Q5.        .

      .

 3   .

     .

pair_bigram <- bigram_seprated %>%
  count(word1, word2, sort = T) %>%
  na.omit()

pair_bigram

## # A tibble: 5,455 x 3
##    word1  word2     n
##    <chr>  <chr> <int>
##  1         43
##  2         40
##  3         38
##  4         35
##  5         24
##  6         24
##  7         23
##  8         17
##  9       14
## 10         13
## #  with 5,445 more rows
…
