Do it! 쉽게 배우는 R 텍스트 마이닝 - 05 의미망 분석: 어떤 맥락에서 단어를 썼을까?
…
---

#### 4. 주요 단어가 사용된 원문 살펴보기

네트워크에 표현된 단어와 텍스트 원문을 함께 살펴보면 맥락을 이해하는 데 도움이 된다

```r
news_comment %>%
  filter(str_detect(reply, "봉준호") & str_detect(reply, "대박")) %>%
  select(reply)
```

```
## # A tibble: 19 x 1
##    reply                                          
##    <chr>                                          
##  1 대박 대박 진짜 대박 봉준호 감독님과 우리 배우들 너무 다랑스러워요…
##  2 내가 죽기전에 아카데미에서 한국어를 들을줄이야 봉준호대박 기생충대박…
##  3 대박 관왕이라니 축하합니다 봉준호를 배출한 충무로 그리고 문화강국 대한 민국…
##  4 우와 대박 진자 대단하다 봉준호                 
##  5 봉준호 경사났네 대박중에 대에박 축하합니다     
##  6 봉준호 작품상 탔다 대박                        
##  7 봉준호 군대 면제시켜도될듯 대박 여윽시 위대한 한국에는 위대한 봉준호 형님이 계시지…
##  8 아니 다른상을 받은것도 충분히 대단하고 굉장하지만 최고의 영예인 작품상을 받은거는 …
##  9 봉준호 군대 면제시켜도될듯 대박 여윽시 위대한 한국에는 위대한 봉준호 형님이 계시지…
## 10 봉준호감독님대박 축하합니다                    
## # … with 9 more rows
```

---

```r
news_comment %>%
  filter(str_detect(reply, "박근혜") & str_detect(reply, "블랙리스트")) %>%
  select(reply)
```

```
## # A tibble: 63 x 1
##    reply                                          
##    <chr>                                          
##  1 일베와 자한당이 싫어하는 봉준호 감독이 아카데미에서 상받으니 쪽바리들처럼 엄청 싫어…
##  2 박근혜 블랙리스트 로 낙인찍은 봉준호 감독님이 아시아 최초로 오스카에서 상을 받아버…
##  3 우리나라에서만 좌파다 빨갱이다 라고 비하함 박근혜 때 이런 세계적 감독을 블랙리스트…
##  4 박근혜 최순실 블랙리스트에 오른 훌륭하신 감독님 축하합니다…
##  5 박근혜정부가 얼마나 썩고 무능했냐면 각종 영화제에서 최고상 수상을 받는 유능한 감독…
##  6 넷상 보수들 만큼 이중적인 새 끼들 없음 봉준호 송강호 보고 종북좌빨 홍어드립 치던…
##  7 박근혜 자한당 독재시절 봉준호 송강호를 블랙리스트 올려놓고 활동 방해 감시하면서 괴…
##  8 대단합니다 김연아 방탄 봉준호 스포츠 음악 영화 못하는게 없어요 좌빨 감독이라 좌파…
##  9 송강호 봉준호 박근혜 이명박 시절 블랙리스트 이제 어떻게 깔려구…
## 10 이명박근혜정권당시 좌파감독이라고 블랙리스트까지 올랏던 봉준호 역사적위업을 달성햇네 …
## # … with 53 more rows
```

---

```r
news_comment %>%
  filter(str_detect(reply, "기생충") & str_detect(reply, "조국")) %>%
  select(reply)
```

```
## # A tibble: 64 x 1
##    reply                                          
##    <chr>                                          
##  1 조국이가 받아야 한다 기생충 스토리 제공        
##  2 한번도경험하지 못한 조국가족사기단기생충 개봉박두…
##  3 와 조국 가족 사기단 부제 기생충 최고           
##  4 문재인과 조국 기생충 리얼                      
##  5 기생충은 좌좀 조국 가족을 패러디한 영화라서 우파들도 열광하고 있는 것이다 같은 영…
##  6 조국 가족이 기생충 영화를 꼭 봐야되는데        
##  7 좌파 인생영화인데 좌파 기생충들에게 이 상을 받쳐라 조국 서울대 문서위조학과 교수님…
##  8 기생충 조국 봉준호 만세                        
##  9 봉준호감독님 글로벌 영화계 큰상수상을 진심으로 축하합니다 다만 기생충 작품은 조국 …
## 10 기생충보면서 조국생각난사람 나쁜일라나 봉준호 감독님이 현 시대를 참 잘 반영해서 만…
## # … with 54 more rows
```
…
