Do it! 쉽게 배우는 R 텍스트 마이닝 - 05 의미망 분석: 어떤 맥락에서 단어를 썼을까?
…
word_cors
```

<svg viewBox="0 0 352 512" xmlns="http://www.w3.org/2000/svg" style="height:1em;fill:currentColor;position:relative;display:inline-block;top:.1em;">  [ comment ]  <path d="M176 80c-52.94 0-96 43.06-96 96 0 8.84 7.16 16 16 16s16-7.16 16-16c0-35.3 28.72-64 64-64 8.84 0 16-7.16 16-16s-7.16-16-16-16zM96.06 459.17c0 3.15.93 6.22 2.68 8.84l24.51 36.84c2.97 4.46 7.97 7.14 13.32 7.14h78.85c5.36 0 10.36-2.68 13.32-7.14l24.51-36.84c1.74-2.62 2.67-5.7 2.68-8.84l.05-43.18H96.02l.04 43.18zM176 0C73.72 0 0 82.97 0 176c0 44.37 16.45 84.85 43.56 115.78 16.64 18.99 42.74 58.8 52.42 92.16v.06h48v-.12c-.01-4.77-.72-9.51-2.15-14.07-5.59-17.81-22.82-64.77-62.17-109.67-20.54-23.43-31.52-53.15-31.61-84.14-.2-73.64 59.67-128 127.95-128 70.58 0 128 57.42 128 128 0 30.97-11.24 60.85-31.65 84.14-39.11 44.61-56.42 91.47-62.1 109.46a47.507 47.507 0 0 0-2.22 14.3v.1h48v-.05c9.68-33.37 35.78-73.18 52.42-92.16C335.55 260.85 352 220.37 352 176 352 78.8 273.2 0 176 0z"></path></svg>  `add_count()` 원자료에 빈도 나타낸 변수 추가

]

--

.pull-right[

```
## # A tibble: 26,732 x 3
##    item1      item2      correlation
##    <chr>      <chr>            <dbl>
##  1 올리다     블랙리스트       0.478
##  2 블랙리스트 올리다           0.478
##  3 역사       쓰다             0.370
##  4 쓰다       역사             0.370
##  5 박근혜     블랙리스트       0.322
##  6 블랙리스트 박근혜           0.322
##  7 가족       조국             0.306
##  8 조국       가족             0.306
##  9 작품상     감독상           0.276
## 10 감독상     작품상           0.276
## # … with 26,722 more rows
```
]

---

#### 특정 단어와 관련성이 큰 단어 살펴보기

.pull-left[

```r
word_cors %>%
  filter(item1 == "대한민국")
```

```
## # A tibble: 163 x 3
##    item1    item2  correlation
##    <chr>    <chr>        <dbl>
##  1 대한민국 국민        0.182 
##  2 대한민국 자랑        0.158 
##  3 대한민국 위상        0.149 
##  4 대한민국 국격        0.129 
##  5 대한민국 위대한      0.100 
##  6 대한민국 세계        0.0910
##  7 대한민국 문화        0.0757
##  8 대한민국 감사합      0.0724
##  9 대한민국 나라        0.0715
## 10 대한민국 오늘        0.0715
## # … with 153 more rows
```
]

.pull-right[

```r
word_cors %>%
  filter(item1 == "역사")
```

```
## # A tibble: 163 x 3
##    item1 item2    correlation
##    <chr> <chr>          <dbl>
##  1 역사  쓰다          0.370 
##  2 역사  최초          0.117 
##  3 역사  한국          0.0982
##  4 역사  순간          0.0910
##  5 역사  한국영화      0.0821
##  6 역사  아니다        0.0774
##  7 역사  감사          0.0654
##  8 역사  영광          0.0640
##  9 역사  영화제        0.0596
## 10 역사  오스카        0.0593
## # … with 153 more rows
```
…
