Do it! 쉽게 배우는 R 텍스트 마이닝 - 05 의미망 분석: 어떤 맥락에서 단어를 썼을까?
…
---

##### (3) 한 댓글이 하나의 행이 되도록 결합하기

```r
comment_new %>%
  select(word)
```

```
## # A tibble: 26,860 x 1
##    word  
##    <chr> 
##  1 우리  
##  2 좋다  
##  3 생기다
##  4 기쁘다
##  5 행복한
##  6 행복  
##  7 축하  
##  8 행복  
##  9 기쁘다
## 10 기쁘다
## # … with 26,850 more rows
```

---

##### (3) 한 댓글이 하나의 행이 되도록 결합하기

```r
line_comment <- comment_new %>%
  group_by(id) %>%
  summarise(sentence = paste(word, collapse = " "))

line_comment
```

```
## # A tibble: 4,007 x 2
##       id sentence                                                               
##  * <int> <chr>                                                                  
##  1     1 우리 좋다 생기다 기쁘다 행복한 행복 축하 행복 기쁘다                   
##  2     2 기쁘다 시국 기쁘다 감사하다 축하 진심                                  
##  3     3 우리나라 봉준호 불다 크다 영감 봉준호 공동각본쓴 한진 작가님 축하 축하 드리다…
##  4     4 봉준호 봉준호 우리나라 대한민국 자랑 세계 어디 우리 한국인 힘내다 삽시 
##  5     5 노벨상 탄느낌이네요 축하                                               
##  6     6 기생충 받다 박수 치다 감독상 기대다 봉준호 봉준호                      
##  7     7 대한민국 영화사 쓰다 계시다                                            
##  8     8 아카데미상 받다 태극기 휘날리다 광해 명량 전부문 휩쓸어야겠            
##  9     9 다시한번 보이다 영화관                                                 
## 10    10 대한민국 봉준호 대단 한국의 문화 자긍심 가지                           
## # … with 3,997 more rows
```
…
##### (4) 바이그램으로 토큰화하기

```r
bigram_comment <- line_comment %>%
  unnest_tokens(input = sentence,
                output = bigram,
                token = "ngrams",
                n = 2)

bigram_comment
```

```
## # A tibble: 23,348 x 2
##       id bigram       
##    <int> <chr>        
##  1     1 우리 좋다    
##  2     1 좋다 생기다  
##  3     1 생기다 기쁘다
##  4     1 기쁘다 행복한
##  5     1 행복한 행복  
##  6     1 행복 축하    
##  7     1 축하 행복    
##  8     1 행복 기쁘다  
##  9     2 기쁘다 시국  
## 10     2 시국 기쁘다  
## # … with 23,338 more rows
```
…
#### 연이어 사용된 단어쌍 빈도 구하기

##### 1. 바이그램 분리하기

```r
# 바이그램 분리하기
bigram_seprated <- bigram_comment %>%
  separate(bigram, c("word1", "word2"), sep = " ")

bigram_seprated
```

```
## # A tibble: 23,348 x 3
##       id word1  word2 
##    <int> <chr>  <chr> 
##  1     1 우리   좋다  
##  2     1 좋다   생기다
##  3     1 생기다 기쁘다
##  4     1 기쁘다 행복한
##  5     1 행복한 행복  
##  6     1 행복   축하  
##  7     1 축하   행복  
##  8     1 행복   기쁘다
##  9     2 기쁘다 시국  
## 10     2 시국   기쁘다
## # … with 23,338 more rows
```
…
```r
# 단어쌍 빈도 구하기
pair_bigram <- bigram_seprated %>%
  count(word1, word2, sort = T) %>%
  na.omit()

pair_bigram
```

]
.pull-right[

```
## # A tibble: 19,136 x 3
##    word1      word2      n
##    <chr>      <chr>  <int>
##  1 봉준호     감독      83
##  2 봉준호     감독님    68
##  3 진심       축하      64
##  4 대단       축하      42
##  5 블랙리스트 올리다    40
##  6 영화       만들다    31
##  7 봉감독     축하      29
##  8 축하       자랑      29
##  9 대박       축하      26
## 10 진짜       대단      25
## # … with 19,126 more rows
```
…
##### 3. 단어쌍 살펴보기

<br10>

.pull-left[

```r
# 동시 출현 단어쌍
*pair %>%
  filter(item1 == "대한민국")
```

```
## # A tibble: 1,010 x 3
##    item1    item2        n
##    <chr>    <chr>    <dbl>
##  1 대한민국 봉준호      70
##  2 대한민국 축하        54
##  3 대한민국 자랑        44
##  4 대한민국 영화        30
##  5 대한민국 기생충      27
##  6 대한민국 국민        22
##  7 대한민국 세계        16
##  8 대한민국 아카데미    16
##  9 대한민국 위상        15
## 10 대한민국 좋다        14
## # … with 1,000 more rows
```
]
.pull-right[

```r
# 바이그램 단어쌍
*pair_bigram %>%
  filter(word1 == "대한민국")
```

```
## # A tibble: 107 x 3
##    word1    word2      n
##    <chr>    <chr>  <int>
##  1 대한민국 국민      21
##  2 대한민국 자랑      17
##  3 대한민국 영화      11
##  4 대한민국 국격       8
##  5 대한민국 위상       7
##  6 대한민국 만세       6
##  7 대한민국 문화       4
##  8 대한민국 영광       4
##  9 대한민국 기생충     3
## 10 대한민국 대단       3
## # … with 97 more rows
```
…
```r
library(stringr)
library(textclean)
news_comment <- raw_news_comment %>%
  select(reply) %>%
  mutate(id = row_number(),
         reply = str_replace_all(reply, "[^가-힣]", " "),
         reply = str_squish(reply))

news_comment %>%
  select(id, reply)
```

```
## # A tibble: 1,200 x 2
##       id reply                                    
##    <int> <chr>                                    
##  1     1 국보소년단                               
##  2     2 아줌마가 들어도 좋더라                   
##  3     3 팩트체크 현재 빌보드 위 방탄소년단 위 위 위 위 위 위 위 위 위…
##  4     4 방탄소년단이 한국사람이라 너무 자랑스러워요 우리오래오래 함께하자…
##  5     5 대단한 월드 클래스는 다르네 좋은 소식 응원해요…
##  6     6 정국오빠 생일과 더불어 빌보드 위기사라니 축제구나…
##  7     7 정말 축하하고 응원하지만 집에서 여러 계정으로 스트리밍 돌리고 사재기하고…
##  8     8 기자는 자고 일어났지만 팬들은 못자고 발표 기다림…
##  9     9 자랑스럽다 축하합니다                    
## 10    10 늘 응원하고 사랑합니다                   
## # … with 1,190 more rows
```
…
---

```r
# 한 행이 한 품사를 구성하도록 분리
library(tidyr)
comment_pos <- comment_pos %>%
  separate_rows(word, sep = "[+]")

comment_pos %>%
  select(word, reply)
```

```
## # A tibble: 20,851 x 2
##    word        reply                 
##    <chr>       <chr>                 
##  1 국보소년/nc 국보소년단            
##  2 단/ma       국보소년단            
##  3 아줌마/nc   아줌마가 들어도 좋더라
##  4 가/jc       아줌마가 들어도 좋더라
##  5 들/pv       아줌마가 들어도 좋더라
##  6 어도/ec     아줌마가 들어도 좋더라
##  7 좋/pa       아줌마가 들어도 좋더라
##  8 더/ep       아줌마가 들어도 좋더라
##  9 어/ec       아줌마가 들어도 좋더라
## 10 라/nc       아줌마가 들어도 좋더라
## # … with 20,841 more rows
```
…
---

```r
comment %>%
  select(word, reply)
```

```
## # A tibble: 7,539 x 2
##    word      reply                                
##    <chr>     <chr>                                
##  1 국보소년  국보소년단                           
##  2 아줌마    아줌마가 들어도 좋더라               
##  3 들다      아줌마가 들어도 좋더라               
##  4 좋다      아줌마가 들어도 좋더라               
##  5 팩트체크  팩트체크 현재 빌보드 위 방탄소년단 위 위 위 위 위 위 위 위 …
##  6 빌보드    팩트체크 현재 빌보드 위 방탄소년단 위 위 위 위 위 위 위 위 …
##  7 방탄소년단… 팩트체크 현재 빌보드 위 방탄소년단 위 위 위 위 위 위 위 위 …
##  8 방탄소년단… 방탄소년단이 한국사람이라 너무 자랑스러워요 우리오래오래 함께하자…
##  9 한국사람  방탄소년단이 한국사람이라 너무 자랑스러워요 우리오래오래 함께하자…
## 10 자랑      방탄소년단이 한국사람이라 너무 자랑스러워요 우리오래오래 함께하자…
## # … with 7,529 more rows
```
…
---

```r
# 단어를 댓글별 한 행으로 결합
line_comment <- comment %>%
  group_by(id) %>%
  summarise(sentence = paste(word, collapse = " "))

line_comment
```

```
## # A tibble: 1,155 x 2
##       id sentence                                 
##  * <int> <chr>                                    
##  1     1 국보소년                                 
##  2     2 아줌마 들다 좋다                         
##  3     3 팩트체크 빌보드 자랑                     
##  4     4 자랑 한국사람 자랑 우리오래오래 함께하다 
##  5     5 대단 월드 클래스 다르다 좋다 소식 응원해 
##  6     6 정국오빠 생일 더불다 빌보드 위기사 축제구
##  7     7 축하 응원하지 계정 스트리밍 돌리다 사재기 팬덤 테러하 개념보고 놀라다…
##  8     8 기자 자다 일어나다 패다 못자 발표        
##  9     9 자랑 축하                                
## 10    10 응원 사랑합                              
## # … with 1,145 more rows
```
…
Q4. 댓글을 바이그램으로 토큰화한 다음 바이그램 단어쌍을 분리하세요.

```r
# 바이그램 토큰화
bigram_comment <- line_comment %>%
  unnest_tokens(input = sentence,
                output = bigram,
                token = "ngrams",
                n = 2)

bigram_comment
```

```
## # A tibble: 6,541 x 2
##       id bigram               
##    <int> <chr>                
##  1     1 <NA>                 
##  2     2 아줌마 들다          
##  3     2 들다 좋다            
##  4     3 팩트체크 빌보드      
##  5     3 빌보드 자랑          
##  6     4 자랑 한국사람        
##  7     4 한국사람 자랑        
##  8     4 자랑 우리오래오래    
##  9     4 우리오래오래 함께하다
## 10     5 대단 월드            
## # … with 6,531 more rows
```

---

```r
# 바이그램 단어쌍 분리
bigram_seprated <- bigram_comment %>%
  separate(bigram, c("word1", "word2"), sep = " ")

bigram_seprated
```

```
## # A tibble: 6,541 x 3
##       id word1        word2       
##    <int> <chr>        <chr>       
##  1     1 <NA>         <NA>        
##  2     2 아줌마       들다        
##  3     2 들다         좋다        
##  4     3 팩트체크     빌보드      
##  5     3 빌보드       자랑        
##  6     4 자랑         한국사람    
##  7     4 한국사람     자랑        
##  8     4 자랑         우리오래오래
##  9     4 우리오래오래 함께하다    
## 10     5 대단         월드        
## # … with 6,531 more rows
```
…
```r
# 단어쌍 빈도 구하기
pair_bigram <- bigram_seprated %>%
  count(word1, word2, sort = T) %>%
  na.omit()

pair_bigram
```
]

.pull-right[

```
## # A tibble: 5,455 x 3
##    word1  word2     n
##    <chr>  <chr> <int>
##  1 축하   하다     43
##  2 자랑   축하     40
##  3 자랑   자랑     38
##  4 축하   자랑     35
##  5 대단   자랑     24
##  6 진짜   자랑     24
##  7 진짜   대단     23
##  8 자랑   진짜     17
##  9 빌보드 축하     14
## 10 군대   면제     13
## # … with 5,445 more rows
```
…
