Do it! 쉽게 배우는 R 텍스트 마이닝 - 05 의미망 분석: 어떤 맥락에서 단어를 썼을까?
…
comment_pos <- news_comment %>%
  unnest_tokens(input = reply,
                output = word,
                token = SimplePos22,
                drop = F)

comment_pos %>%
  select(reply, word)
```

---

```
## # A tibble: 39,956 x 2
##    reply                                word      
##    <chr>                                <chr>     
##  1 정말 우리 집에 좋은 일이 생겨 기쁘고 행복한 것처럼 나의 일인… 정말/ma   
##  2 정말 우리 집에 좋은 일이 생겨 기쁘고 행복한 것처럼 나의 일인… 우리/np   
##  3 정말 우리 집에 좋은 일이 생겨 기쁘고 행복한 것처럼 나의 일인… 집/nc+에/jc…
##  4 정말 우리 집에 좋은 일이 생겨 기쁘고 행복한 것처럼 나의 일인… 좋/pa+은/et…
##  5 정말 우리 집에 좋은 일이 생겨 기쁘고 행복한 것처럼 나의 일인… 일/nc+이/jc…
##  6 정말 우리 집에 좋은 일이 생겨 기쁘고 행복한 것처럼 나의 일인… 생기/pv+어/e…
##  7 정말 우리 집에 좋은 일이 생겨 기쁘고 행복한 것처럼 나의 일인… 기쁘/pa+고/e…
##  8 정말 우리 집에 좋은 일이 생겨 기쁘고 행복한 것처럼 나의 일인… 행복한/nc 
##  9 정말 우리 집에 좋은 일이 생겨 기쁘고 행복한 것처럼 나의 일인… 것/nb+처럼/j…
## 10 정말 우리 집에 좋은 일이 생겨 기쁘고 행복한 것처럼 나의 일인… 나/np+의/jc…
## # … with 39,946 more rows
```
…
```r
# 품사별로 행 분리
library(tidyr)
comment_pos <- comment_pos %>%
  separate_rows(word, sep = "[+]")

comment_pos %>%
  select(word, reply)
```

---

```
## # A tibble: 70,553 x 2
##    word    reply                                  
##    <chr>   <chr>                                  
##  1 정말/ma 정말 우리 집에 좋은 일이 생겨 기쁘고 행복한 것처럼 나의 일인 양 …
##  2 우리/np 정말 우리 집에 좋은 일이 생겨 기쁘고 행복한 것처럼 나의 일인 양 …
##  3 집/nc   정말 우리 집에 좋은 일이 생겨 기쁘고 행복한 것처럼 나의 일인 양 …
##  4 에/jc   정말 우리 집에 좋은 일이 생겨 기쁘고 행복한 것처럼 나의 일인 양 …
##  5 좋/pa   정말 우리 집에 좋은 일이 생겨 기쁘고 행복한 것처럼 나의 일인 양 …
##  6 은/et   정말 우리 집에 좋은 일이 생겨 기쁘고 행복한 것처럼 나의 일인 양 …
##  7 일/nc   정말 우리 집에 좋은 일이 생겨 기쁘고 행복한 것처럼 나의 일인 양 …
##  8 이/jc   정말 우리 집에 좋은 일이 생겨 기쁘고 행복한 것처럼 나의 일인 양 …
##  9 생기/pv 정말 우리 집에 좋은 일이 생겨 기쁘고 행복한 것처럼 나의 일인 양 …
## 10 어/ec   정말 우리 집에 좋은 일이 생겨 기쁘고 행복한 것처럼 나의 일인 양 …
## # … with 70,543 more rows
```
…
```r
# 명사 추출하기
noun <- comment_pos %>%
  filter(str_detect(word, "/n")) %>%
  mutate(word = str_remove(word, "/.*$"))

noun %>%
  select(word, reply)
```

---

```
## # A tibble: 27,457 x 2
##    word   reply                                   
##    <chr>  <chr>                                   
##  1 우리   정말 우리 집에 좋은 일이 생겨 기쁘고 행복한 것처럼 나의 일인 양 행…
##  2 집     정말 우리 집에 좋은 일이 생겨 기쁘고 행복한 것처럼 나의 일인 양 행…
##  3 일     정말 우리 집에 좋은 일이 생겨 기쁘고 행복한 것처럼 나의 일인 양 행…
##  4 행복한 정말 우리 집에 좋은 일이 생겨 기쁘고 행복한 것처럼 나의 일인 양 행…
##  5 것     정말 우리 집에 좋은 일이 생겨 기쁘고 행복한 것처럼 나의 일인 양 행…
##  6 나     정말 우리 집에 좋은 일이 생겨 기쁘고 행복한 것처럼 나의 일인 양 행…
##  7 일     정말 우리 집에 좋은 일이 생겨 기쁘고 행복한 것처럼 나의 일인 양 행…
##  8 양     정말 우리 집에 좋은 일이 생겨 기쁘고 행복한 것처럼 나의 일인 양 행…
##  9 행복   정말 우리 집에 좋은 일이 생겨 기쁘고 행복한 것처럼 나의 일인 양 행…
## 10 행복   정말 우리 집에 좋은 일이 생겨 기쁘고 행복한 것처럼 나의 일인 양 행…
## # … with 27,447 more rows
```

---

```r
# 명사 빈도 구하기
noun %>%
  count(word, sort = T)
```

```
## # A tibble: 8,069 x 2
##    word         n
##    <chr>    <int>
##  1 영화       463
##  2 기생충     445
##  3 봉준호     372
##  4 것         353
##  5 아카데미   252
##  6 축하       232
##  7 나         230
##  8 대한민국   226
##  9 자랑       222
## 10 작품상     218
## # … with 8,059 more rows
```
…
```r
# 동사, 형용사 추출하기
pvpa <- comment_pos %>%
  filter(str_detect(word, "/pv|/pa")) %>%         # "/pv", "/pa" 추출
  mutate(word = str_replace(word, "/.*$", "다"))  # "/"로 시작 문자를 "다"로 바꾸기

pvpa %>%
  select(word, reply)
```

---

```
## # A tibble: 5,317 x 2
##    word      reply                                
##    <chr>     <chr>                                
##  1 좋다      정말 우리 집에 좋은 일이 생겨 기쁘고 행복한 것처럼 나의 일인 …
##  2 생기다    정말 우리 집에 좋은 일이 생겨 기쁘고 행복한 것처럼 나의 일인 …
##  3 기쁘다    정말 우리 집에 좋은 일이 생겨 기쁘고 행복한 것처럼 나의 일인 …
##  4 축하드리다… 정말 우리 집에 좋은 일이 생겨 기쁘고 행복한 것처럼 나의 일인 …
##  5 기쁘다    정말 우리 집에 좋은 일이 생겨 기쁘고 행복한 것처럼 나의 일인 …
##  6 기쁘다    와 너무 기쁘다 이 시국에 정말 내 일같이 기쁘고 감사하다 축하드…
##  7 기쁘다    와 너무 기쁘다 이 시국에 정말 내 일같이 기쁘고 감사하다 축하드…
##  8 축하드리다… 와 너무 기쁘다 이 시국에 정말 내 일같이 기쁘고 감사하다 축하드…
##  9 불다      우리나라의 영화감독분들 그리고 앞으로 그 꿈을 그리는 분들에게 큰…
## 10 크다      우리나라의 영화감독분들 그리고 앞으로 그 꿈을 그리는 분들에게 큰…
## # … with 5,307 more rows
```
…
```r
# 품사 결합
comment <- bind_rows(noun, pvpa) %>%
  filter(str_count(word) >= 2) %>%
  arrange(id)

comment %>%
  select(word, reply)
```

---

```
## # A tibble: 26,860 x 2
##    word      reply                                
##    <chr>     <chr>                                
##  1 우리      정말 우리 집에 좋은 일이 생겨 기쁘고 행복한 것처럼 나의 일인 …
##  2 행복한    정말 우리 집에 좋은 일이 생겨 기쁘고 행복한 것처럼 나의 일인 …
##  3 행복      정말 우리 집에 좋은 일이 생겨 기쁘고 행복한 것처럼 나의 일인 …
##  4 행복      정말 우리 집에 좋은 일이 생겨 기쁘고 행복한 것처럼 나의 일인 …
##  5 좋다      정말 우리 집에 좋은 일이 생겨 기쁘고 행복한 것처럼 나의 일인 …
##  6 생기다    정말 우리 집에 좋은 일이 생겨 기쁘고 행복한 것처럼 나의 일인 …
##  7 기쁘다    정말 우리 집에 좋은 일이 생겨 기쁘고 행복한 것처럼 나의 일인 …
##  8 축하드리다… 정말 우리 집에 좋은 일이 생겨 기쁘고 행복한 것처럼 나의 일인 …
##  9 기쁘다    정말 우리 집에 좋은 일이 생겨 기쁘고 행복한 것처럼 나의 일인 …
## 10 시국      와 너무 기쁘다 이 시국에 정말 내 일같이 기쁘고 감사하다 축하드…
## # … with 26,850 more rows
```
…
```r
install.packages("widyr")
library(widyr)

pair <- comment %>%
  pairwise_count(item = word,
                 feature = id,
                 sort = T)
pair
```

---

```
## # A tibble: 245,920 x 3
##    item1      item2      n
##    <chr>      <chr>  <dbl>
##  1 영화       기생충   111
##  2 기생충     영화     111
##  3 감독       봉준호    86
##  4 봉준호     감독      86
##  5 감독님     봉준호    66
##  6 봉준호     감독님    66
##  7 만들다     영화      57
##  8 영화       만들다    57
##  9 기생충     봉준호    54
## 10 블랙리스트 감독      54
## # … with 245,910 more rows
```
…
---

##### 특정 단어와 자주 함께 사용된 단어 살펴보기

.pull-left[

```r
pair %>% filter(item1 == "영화")
```

```
## # A tibble: 2,313 x 3
##    item1 item2        n
##    <chr> <chr>    <dbl>
##  1 영화  기생충     111
##  2 영화  만들다      57
##  3 영화  봉준호      52
##  4 영화  받다        48
##  5 영화  한국        46
##  6 영화  아카데미    42
##  7 영화  같다        41
##  8 영화  감독        39
##  9 영화  아니다      38
## 10 영화  좋다        35
## # … with 2,303 more rows
```
]

.pull-right[

```r
pair %>% filter(item1 == "봉준호")
```

```
## # A tibble: 1,579 x 3
##    item1  item2          n
##    <chr>  <chr>      <dbl>
##  1 봉준호 감독          86
##  2 봉준호 감독님        66
##  3 봉준호 기생충        54
##  4 봉준호 영화          52
##  5 봉준호 블랙리스트    48
##  6 봉준호 대한민국      38
##  7 봉준호 자랑          33
##  8 봉준호 축하드리다    30
##  9 봉준호 송강호        30
## 10 봉준호 축하          25
## # … with 1,569 more rows
```
…
---

#### 4. 주요 단어가 사용된 원문 살펴보기

```r
news_comment %>%
  filter(str_detect(reply, "봉준호") & str_detect(reply, "대박")) %>%
  select(reply)
```

```
## # A tibble: 19 x 1
##    reply                                          
##    <chr>                                          
##  1 대박 대박 진짜 대박 봉준호 감독님과 우리 배우들 너무 다랑스러워요…
##  2 내가 죽기전에 아카데미에서 한국어를 들을줄이야 봉준호대박 기생충대박…
##  3 대박 관왕이라니 축하합니다 봉준호를 배출한 충무로 그리고 문화강국 대한 민국…
##  4 우와 대박 진자 대단하다 봉준호                 
##  5 봉준호 경사났네 대박중에 대에박 축하합니다     
##  6 봉준호 작품상 탔다 대박                        
##  7 봉준호 군대 면제시켜도될듯 대박 여윽시 위대한 한국에는 위대한 봉준호 형님이 계시지…
##  8 아니 다른상을 받은것도 충분히 대단하고 굉장하지만 최고의 영예인 작품상을 받은거는 …
##  9 봉준호 군대 면제시켜도될듯 대박 여윽시 위대한 한국에는 위대한 봉준호 형님이 계시지…
## 10 봉준호감독님대박 축하합니다                    
## # … with 9 more rows
```

---

```r
news_comment %>%
  filter(str_detect(reply, "박근혜") & str_detect(reply, "블랙리스트")) %>%
  select(reply)
```

```
## # A tibble: 63 x 1
##    reply                                          
##    <chr>                                          
##  1 일베와 자한당이 싫어하는 봉준호 감독이 아카데미에서 상받으니 쪽바리들처럼 엄청 싫어…
##  2 박근혜 블랙리스트 로 낙인찍은 봉준호 감독님이 아시아 최초로 오스카에서 상을 받아버…
##  3 우리나라에서만 좌파다 빨갱이다 라고 비하함 박근혜 때 이런 세계적 감독을 블랙리스트…
##  4 박근혜 최순실 블랙리스트에 오른 훌륭하신 감독님 축하합니다…
##  5 박근혜정부가 얼마나 썩고 무능했냐면 각종 영화제에서 최고상 수상을 받는 유능한 감독…
##  6 넷상 보수들 만큼 이중적인 새 끼들 없음 봉준호 송강호 보고 종북좌빨 홍어드립 치던…
##  7 박근혜 자한당 독재시절 봉준호 송강호를 블랙리스트 올려놓고 활동 방해 감시하면서 괴…
##  8 대단합니다 김연아 방탄 봉준호 스포츠 음악 영화 못하는게 없어요 좌빨 감독이라 좌파…
##  9 송강호 봉준호 박근혜 이명박 시절 블랙리스트 이제 어떻게 깔려구…
## 10 이명박근혜정권당시 좌파감독이라고 블랙리스트까지 올랏던 봉준호 역사적위업을 달성햇네 …
## # … with 53 more rows
```

---

```r
news_comment %>%
  filter(str_detect(reply, "기생충") & str_detect(reply, "조국")) %>%
  select(reply)
```

```
## # A tibble: 64 x 1
##    reply                                          
##    <chr>                                          
##  1 조국이가 받아야 한다 기생충 스토리 제공        
##  2 한번도경험하지 못한 조국가족사기단기생충 개봉박두…
##  3 와 조국 가족 사기단 부제 기생충 최고           
##  4 문재인과 조국 기생충 리얼                      
##  5 기생충은 좌좀 조국 가족을 패러디한 영화라서 우파들도 열광하고 있는 것이다 같은 영…
##  6 조국 가족이 기생충 영화를 꼭 봐야되는데        
##  7 좌파 인생영화인데 좌파 기생충들에게 이 상을 받쳐라 조국 서울대 문서위조학과 교수님…
##  8 기생충 조국 봉준호 만세                        
##  9 봉준호감독님 글로벌 영화계 큰상수상을 진심으로 축하합니다 다만 기생충 작품은 조국 …
## 10 기생충보면서 조국생각난사람 나쁜일라나 봉준호 감독님이 현 시대를 참 잘 반영해서 만…
## # … with 54 more rows
```
…
word_cors
```

<svg viewBox="0 0 352 512" xmlns="http://www.w3.org/2000/svg" style="height:1em;fill:currentColor;position:relative;display:inline-block;top:.1em;">  [ comment ]  <path d="M176 80c-52.94 0-96 43.06-96 96 0 8.84 7.16 16 16 16s16-7.16 16-16c0-35.3 28.72-64 64-64 8.84 0 16-7.16 16-16s-7.16-16-16-16zM96.06 459.17c0 3.15.93 6.22 2.68 8.84l24.51 36.84c2.97 4.46 7.97 7.14 13.32 7.14h78.85c5.36 0 10.36-2.68 13.32-7.14l24.51-36.84c1.74-2.62 2.67-5.7 2.68-8.84l.05-43.18H96.02l.04 43.18zM176 0C73.72 0 0 82.97 0 176c0 44.37 16.45 84.85 43.56 115.78 16.64 18.99 42.74 58.8 52.42 92.16v.06h48v-.12c-.01-4.77-.72-9.51-2.15-14.07-5.59-17.81-22.82-64.77-62.17-109.67-20.54-23.43-31.52-53.15-31.61-84.14-.2-73.64 59.67-128 127.95-128 70.58 0 128 57.42 128 128 0 30.97-11.24 60.85-31.65 84.14-39.11 44.61-56.42 91.47-62.1 109.46a47.507 47.507 0 0 0-2.22 14.3v.1h48v-.05c9.68-33.37 35.78-73.18 52.42-92.16C335.55 260.85 352 220.37 352 176 352 78.8 273.2 0 176 0z"></path></svg>  `add_count()` 원자료에 빈도 나타낸 변수 추가

]

--

.pull-right[

```
## # A tibble: 26,732 x 3
##    item1      item2      correlation
##    <chr>      <chr>            <dbl>
##  1 올리다     블랙리스트       0.478
##  2 블랙리스트 올리다           0.478
##  3 역사       쓰다             0.370
##  4 쓰다       역사             0.370
##  5 박근혜     블랙리스트       0.322
##  6 블랙리스트 박근혜           0.322
##  7 가족       조국             0.306
##  8 조국       가족             0.306
##  9 작품상     감독상           0.276
## 10 감독상     작품상           0.276
## # … with 26,722 more rows
```
]

---

#### 특정 단어와 관련성이 큰 단어 살펴보기

.pull-left[

```r
word_cors %>%
  filter(item1 == "대한민국")
```

```
## # A tibble: 163 x 3
##    item1    item2  correlation
##    <chr>    <chr>        <dbl>
##  1 대한민국 국민        0.182 
##  2 대한민국 자랑        0.158 
##  3 대한민국 위상        0.149 
##  4 대한민국 국격        0.129 
##  5 대한민국 위대한      0.100 
##  6 대한민국 세계        0.0910
##  7 대한민국 문화        0.0757
##  8 대한민국 감사합      0.0724
##  9 대한민국 나라        0.0715
## 10 대한민국 오늘        0.0715
## # … with 153 more rows
```
]

.pull-right[

```r
word_cors %>%
  filter(item1 == "역사")
```

```
## # A tibble: 163 x 3
##    item1 item2    correlation
##    <chr> <chr>          <dbl>
##  1 역사  쓰다          0.370 
##  2 역사  최초          0.117 
##  3 역사  한국          0.0982
##  4 역사  순간          0.0910
##  5 역사  한국영화      0.0821
##  6 역사  아니다        0.0774
##  7 역사  감사          0.0654
##  8 역사  영광          0.0640
##  9 역사  영화제        0.0596
## 10 역사  오스카        0.0593
## # … with 153 more rows
```
…
---

##### (3) 한 댓글이 하나의 행이 되도록 결합하기

```r
comment_new %>%
  select(word)
```

```
## # A tibble: 26,860 x 1
##    word  
##    <chr> 
##  1 우리  
##  2 좋다  
##  3 생기다
##  4 기쁘다
##  5 행복한
##  6 행복  
##  7 축하  
##  8 행복  
##  9 기쁘다
## 10 기쁘다
## # … with 26,850 more rows
```

---

##### (3) 한 댓글이 하나의 행이 되도록 결합하기

```r
line_comment <- comment_new %>%
  group_by(id) %>%
  summarise(sentence = paste(word, collapse = " "))

line_comment
```

```
## # A tibble: 4,007 x 2
##       id sentence                                                               
##  * <int> <chr>                                                                  
##  1     1 우리 좋다 생기다 기쁘다 행복한 행복 축하 행복 기쁘다                   
##  2     2 기쁘다 시국 기쁘다 감사하다 축하 진심                                  
##  3     3 우리나라 봉준호 불다 크다 영감 봉준호 공동각본쓴 한진 작가님 축하 축하 드리다…
##  4     4 봉준호 봉준호 우리나라 대한민국 자랑 세계 어디 우리 한국인 힘내다 삽시 
##  5     5 노벨상 탄느낌이네요 축하                                               
##  6     6 기생충 받다 박수 치다 감독상 기대다 봉준호 봉준호                      
##  7     7 대한민국 영화사 쓰다 계시다                                            
##  8     8 아카데미상 받다 태극기 휘날리다 광해 명량 전부문 휩쓸어야겠            
##  9     9 다시한번 보이다 영화관                                                 
## 10    10 대한민국 봉준호 대단 한국의 문화 자긍심 가지                           
## # … with 3,997 more rows
```
…
##### (4) 바이그램으로 토큰화하기

```r
bigram_comment <- line_comment %>%
  unnest_tokens(input = sentence,
                output = bigram,
                token = "ngrams",
                n = 2)

bigram_comment
```

```
## # A tibble: 23,348 x 2
##       id bigram       
##    <int> <chr>        
##  1     1 우리 좋다    
##  2     1 좋다 생기다  
##  3     1 생기다 기쁘다
##  4     1 기쁘다 행복한
##  5     1 행복한 행복  
##  6     1 행복 축하    
##  7     1 축하 행복    
##  8     1 행복 기쁘다  
##  9     2 기쁘다 시국  
## 10     2 시국 기쁘다  
## # … with 23,338 more rows
```
…
#### 연이어 사용된 단어쌍 빈도 구하기

##### 1. 바이그램 분리하기

```r
# 바이그램 분리하기
bigram_seprated <- bigram_comment %>%
  separate(bigram, c("word1", "word2"), sep = " ")

bigram_seprated
```

```
## # A tibble: 23,348 x 3
##       id word1  word2 
##    <int> <chr>  <chr> 
##  1     1 우리   좋다  
##  2     1 좋다   생기다
##  3     1 생기다 기쁘다
##  4     1 기쁘다 행복한
##  5     1 행복한 행복  
##  6     1 행복   축하  
##  7     1 축하   행복  
##  8     1 행복   기쁘다
##  9     2 기쁘다 시국  
## 10     2 시국   기쁘다
## # … with 23,338 more rows
```
…
```r
# 단어쌍 빈도 구하기
pair_bigram <- bigram_seprated %>%
  count(word1, word2, sort = T) %>%
  na.omit()

pair_bigram
```

]
.pull-right[

```
## # A tibble: 19,030 x 3
##    word1      word2          n
##    <chr>      <chr>      <int>
##  1 봉준호     봉준호       155
##  2 블랙리스트 올리다        64
##  3 진심       축하          64
##  4 봉준호     축하          57
##  5 봉준호     송강호        34
##  6 영화       만들다        31
##  7 축하       봉준호        31
##  8 대단       축하          27
##  9 봉준호     블랙리스트    27
## 10 대박       축하          26
## # … with 19,020 more rows
```
…
##### 3. 단어쌍 살펴보기

<br10>

.pull-left[

```r
# 동시 출현 단어쌍
*pair %>%
  filter(item1 == "대한민국")
```

```
## # A tibble: 1,010 x 3
##    item1    item2        n
##    <chr>    <chr>    <dbl>
##  1 대한민국 봉준호      70
##  2 대한민국 축하        54
##  3 대한민국 자랑        44
##  4 대한민국 영화        30
##  5 대한민국 기생충      27
##  6 대한민국 국민        22
##  7 대한민국 세계        16
##  8 대한민국 아카데미    16
##  9 대한민국 위상        15
## 10 대한민국 좋다        14
## # … with 1,000 more rows
```
]
.pull-right[

```r
# 바이그램 단어쌍
*pair_bigram %>%
  filter(word1 == "대한민국")
```

```
## # A tibble: 109 x 3
##    word1    word2      n
##    <chr>    <chr>  <int>
##  1 대한민국 국민      21
##  2 대한민국 자랑      15
##  3 대한민국 영화      11
##  4 대한민국 국격       8
##  5 대한민국 위상       7
##  6 대한민국 만세       6
##  7 대한민국 봉준호     5
##  8 대한민국 문화       4
##  9 대한민국 영광       4
## 10 대한민국 기생충     3
## # … with 99 more rows
```
…
```r
library(stringr)
library(textclean)
news_comment <- raw_news_comment %>%
  select(reply) %>%
  mutate(id = row_number(),
         reply = str_replace_all(reply, "[^가-힣]", " "),
         reply = str_squish(reply))

news_comment %>%
  select(id, reply)
```

```
## # A tibble: 1,200 x 2
##       id reply                                    
##    <int> <chr>                                    
##  1     1 국보소년단                               
##  2     2 아줌마가 들어도 좋더라                   
##  3     3 팩트체크 현재 빌보드 위 방탄소년단 위 위 위 위 위 위 위 위 위…
##  4     4 방탄소년단이 한국사람이라 너무 자랑스러워요 우리오래오래 함께하자…
##  5     5 대단한 월드 클래스는 다르네 좋은 소식 응원해요…
##  6     6 정국오빠 생일과 더불어 빌보드 위기사라니 축제구나…
##  7     7 정말 축하하고 응원하지만 집에서 여러 계정으로 스트리밍 돌리고 사재기하고…
##  8     8 기자는 자고 일어났지만 팬들은 못자고 발표 기다림…
##  9     9 자랑스럽다 축하합니다                    
## 10    10 늘 응원하고 사랑합니다                   
## # … with 1,190 more rows
```
…
---

```r
# 한 행이 한 품사를 구성하도록 분리
library(tidyr)
comment_pos <- comment_pos %>%
  separate_rows(word, sep = "[+]")

comment_pos %>%
  select(word, reply)
```

```
## # A tibble: 20,851 x 2
##    word        reply                 
##    <chr>       <chr>                 
##  1 국보소년/nc 국보소년단            
##  2 단/ma       국보소년단            
##  3 아줌마/nc   아줌마가 들어도 좋더라
##  4 가/jc       아줌마가 들어도 좋더라
##  5 들/pv       아줌마가 들어도 좋더라
##  6 어도/ec     아줌마가 들어도 좋더라
##  7 좋/pa       아줌마가 들어도 좋더라
##  8 더/ep       아줌마가 들어도 좋더라
##  9 어/ec       아줌마가 들어도 좋더라
## 10 라/nc       아줌마가 들어도 좋더라
## # … with 20,841 more rows
```
…
---

```r
comment %>%
  select(word, reply)
```

```
## # A tibble: 7,539 x 2
##    word      reply                                
##    <chr>     <chr>                                
##  1 국보소년  국보소년단                           
##  2 아줌마    아줌마가 들어도 좋더라               
##  3 들다      아줌마가 들어도 좋더라               
##  4 좋다      아줌마가 들어도 좋더라               
##  5 팩트체크  팩트체크 현재 빌보드 위 방탄소년단 위 위 위 위 위 위 위 위 …
##  6 빌보드    팩트체크 현재 빌보드 위 방탄소년단 위 위 위 위 위 위 위 위 …
##  7 방탄소년단… 팩트체크 현재 빌보드 위 방탄소년단 위 위 위 위 위 위 위 위 …
##  8 방탄소년단… 방탄소년단이 한국사람이라 너무 자랑스러워요 우리오래오래 함께하자…
##  9 한국사람  방탄소년단이 한국사람이라 너무 자랑스러워요 우리오래오래 함께하자…
## 10 자랑      방탄소년단이 한국사람이라 너무 자랑스러워요 우리오래오래 함께하자…
## # … with 7,529 more rows
```
…
---

```r
# 단어를 댓글별 한 행으로 결합
line_comment <- comment %>%
  group_by(id) %>%
  summarise(sentence = paste(word, collapse = " "))

line_comment
```

```
## # A tibble: 1,155 x 2
##       id sentence                                 
##  * <int> <chr>                                    
##  1     1 국보소년                                 
##  2     2 아줌마 들다 좋다                         
##  3     3 팩트체크 빌보드 자랑                     
##  4     4 자랑 한국사람 자랑 우리오래오래 함께하다 
##  5     5 대단 월드 클래스 다르다 좋다 소식 응원해 
##  6     6 정국오빠 생일 더불다 빌보드 위기사 축제구
##  7     7 축하 응원하지 계정 스트리밍 돌리다 사재기 팬덤 테러하 개념보고 놀라다…
##  8     8 기자 자다 일어나다 패다 못자 발표        
##  9     9 자랑 축하                                
## 10    10 응원 사랑합                              
## # … with 1,145 more rows
```
…
Q4. 댓글을 바이그램으로 토큰화한 다음 바이그램 단어쌍을 분리하세요.

```r
# 바이그램 토큰화
bigram_comment <- line_comment %>%
  unnest_tokens(input = sentence,
                output = bigram,
                token = "ngrams",
                n = 2)

bigram_comment
```

```
## # A tibble: 6,541 x 2
##       id bigram               
##    <int> <chr>                
##  1     1 <NA>                 
##  2     2 아줌마 들다          
##  3     2 들다 좋다            
##  4     3 팩트체크 빌보드      
##  5     3 빌보드 자랑          
##  6     4 자랑 한국사람        
##  7     4 한국사람 자랑        
##  8     4 자랑 우리오래오래    
##  9     4 우리오래오래 함께하다
## 10     5 대단 월드            
## # … with 6,531 more rows
```

---

```r
# 바이그램 단어쌍 분리
bigram_seprated <- bigram_comment %>%
  separate(bigram, c("word1", "word2"), sep = " ")

bigram_seprated
```

```
## # A tibble: 6,541 x 3
##       id word1        word2       
##    <int> <chr>        <chr>       
##  1     1 <NA>         <NA>        
##  2     2 아줌마       들다        
##  3     2 들다         좋다        
##  4     3 팩트체크     빌보드      
##  5     3 빌보드       자랑        
##  6     4 자랑         한국사람    
##  7     4 한국사람     자랑        
##  8     4 자랑         우리오래오래
##  9     4 우리오래오래 함께하다    
## 10     5 대단         월드        
## # … with 6,531 more rows
```
…
```r
# 단어쌍 빈도 구하기
pair_bigram <- bigram_seprated %>%
  count(word1, word2, sort = T) %>%
  na.omit()

pair_bigram
```
]

.pull-right[

```
## # A tibble: 5,455 x 3
##    word1  word2     n
##    <chr>  <chr> <int>
##  1 축하   하다     43
##  2 자랑   축하     40
##  3 자랑   자랑     38
##  4 축하   자랑     35
##  5 대단   자랑     24
##  6 진짜   자랑     24
##  7 진짜   대단     23
##  8 자랑   진짜     17
##  9 빌보드 축하     14
## 10 군대   면제     13
## # … with 5,445 more rows
```
…
