Do it! 쉽게 배우는 R 텍스트 마이닝 - 06 토픽 모델링: 어떤 주제로 글을 썼을까?
…
  # 댓글 내 중복 단어 제거
  group_by(id) %>%
  distinct(word, .keep_all = T) %>%
  ungroup() %>%
  select(id, word)
```

---

```r
comment
```

```
## # A tibble: 21,457 x 2
##       id word    
##    <int> <chr>   
##  1     1 우리    
##  2     1 행복    
##  3     2 시국    
##  4     2 감사    
##  5     2 하다    
##  6     2 진심    
##  7     3 우리나라
##  8     3 영화감독
##  9     3 영감    
## 10     3 봉감    
## # ... with 21,447 more rows
```
…
<br>

- 빈도 높은 단어 추출해 불용어 확인, 표현은 다르지만 의미가 비슷한 유의어가 있는지 확인

```r
# 불용어, 유의어 확인하기
count_word %>%
  count(word, sort = T) %>%
  print(n = 200)
```

---

```
## # A tibble: 6,022 x 2
##    word           n
##    <chr>      <int>
##  1 작품상       200
##  2 자랑         193
##  3 블랙리스트   173
##  4 조국         170
##  5 한국         165
##  6 대박         148
##  7 세계         140
##  8 수상         135
##  9 미국         128
## 10 들이         123
## 11 정치         108
## 12 역사         102
## 13 오스카       101
## 14 우리나라      96
## 15 감독상        93
## 16 진심          93
## 17 좌파          90
## 18 작품          87
## 19 한국영화      87
## 20 사람          86
## # ... with 6,002 more rows
```
…
##### 1.1 문서별 단어 빈도 구하기

```r
# 문서별 단어 빈도 구하기
count_word_doc <- count_word %>%
  count(id, word, sort = T)

count_word_doc
```

---

```
## # A tibble: 17,592 x 3
##       id word           n
##    <int> <chr>      <int>
##  1    35 한국           2
##  2   206 자랑           2
##  3   566 자랑           2
##  4   578 자랑           2
##  5   598 자랑           2
##  6  1173 한국           2
##  7  1599 한국           2
##  8  1762 한국           2
##  9  2240 한국           2
## 10  2307 방탄소년단     2
## # ... with 17,582 more rows
```
…
##### beta 추출하기

- `tidytext::tidy()`

.pull-left-50[

```r
term_topic <- tidy(lda_model, matrix = "beta")
term_topic
```
]
.pull-right-40[

```
## # A tibble: 47,960 x 3
##    topic term       beta
##    <int> <chr>     <dbl>
##  1     1 한국  0.000405 
##  2     2 한국  0.0000364
##  3     3 한국  0.0000353
##  4     4 한국  0.00295  
##  5     5 한국  0.0000353
##  6     6 한국  0.0000356
##  7     7 한국  0.00661  
##  8     8 한국  0.0593   
##  9     1 자랑  0.0181   
## 10     2 자랑  0.00440  
## # ... with 47,950 more rows
```
…
#### 토픽별 주요 단어 살펴보기

##### 특정 토픽에서 beta가 높은 단어 살펴보기

```r
term_topic %>%
  filter(topic == 6) %>%
  arrange(-beta)
```

```
## # A tibble: 5,995 x 3
##    topic term        beta
##    <int> <chr>      <dbl>
##  1     6 작품상   0.0695 
##  2     6 감독상   0.0318 
##  3     6 한국영화 0.0228 
##  4     6 수상     0.0214 
##  5     6 각본상   0.0154 
##  6     6 나라     0.0143 
##  7     6 호감     0.0136 
##  8     6 감격     0.0129 
##  9     6 순간     0.0125 
## 10     6 눈물     0.00788
## # ... with 5,985 more rows
```
…
##### gamma 추출하기

.pull-left-50[

```r
doc_topic <- tidy(lda_model, matrix = "gamma")
doc_topic
```
]

.pull-right-40[

```
## # A tibble: 25,624 x 3
##    document topic  gamma
##    <chr>    <int>  <dbl>
##  1 35           1 0.151 
##  2 206          1 0.15  
##  3 566          1 0.110 
##  4 578          1 0.114 
##  5 598          1 0.110 
##  6 1173         1 0.110 
##  7 1599         1 0.114 
##  8 1762         1 0.0962
##  9 2240         1 0.125 
## 10 2307         1 0.135 
## # ... with 25,614 more rows
```
…
.pull-left[

```r
# 문서별로 확률이 가장 높은 토픽 추출
doc_class <- doc_topic %>%
  group_by(document) %>%
  slice_max(gamma, n = 1)

doc_class
```
]
.pull-right[

```
## # A tibble: 5,328 x 3
## # Groups:   document [3,203]
##    document topic gamma
##    <chr>    <int> <dbl>
##  1 1            5 0.159
##  2 10           8 0.168
##  3 100          5 0.153
##  4 1000         7 0.15 
##  5 1001         1 0.137
##  6 1001         3 0.137
##  7 1001         7 0.137
##  8 1002         3 0.137
##  9 1002         7 0.137
## 10 1002         8 0.137
## # ... with 5,318 more rows
```
…
---

##### 2. 원문에 확률이 가장 높은 토픽 번호 부여하기

```r
# 결합 확인
news_comment_topic %>%
  select(id, topic)
```

```
## # A tibble: 6,275 x 2
##       id topic
##    <int> <int>
##  1     1     5
##  2     2     1
##  3     2     5
##  4     2     6
##  5     3     2
##  6     3     8
##  7     4     4
##  8     5     5
##  9     5     6
## 10     6     3
## # ... with 6,265 more rows
```
…
```r
comment_topic <- news_comment_topic %>%
  mutate(reply = str_squish(replace_html(reply))) %>%
  arrange(-gamma)

comment_topic %>%
  select(gamma, reply)
```

---

```
## # A tibble: 5,328 x 2
##    gamma reply                                    
##    <dbl> <chr>                                    
##  1 0.264 "도서관서 여자화장실서 나오는 남자사서보~
##  2 0.260 "봉준호 송강호 블랙리스트 올리고 CJ 이미~
##  3 0.239 "보수정권때 블랙리스트에 오른 봉준호 송~ 
##  4 0.238 "도서관서 여자화장실서 나오는 남자사서보~
##  5 0.235 "당초 \"1917\"과 \"기생충\"의 접전을[초~ 
##  6 0.234 "박그네 밑에서 블랙리스트 있었는데 ㅋㅋ~ 
##  7 0.226 "위대한 박정희 삼성이 대한민국을 세계에 ~
##  8 0.225 "기생충 영화보고 좌빨이 얼마나 기생충인~ 
##  9 0.225 "봉준호 감독과 송강호 배우는 이명박그네 ~
## 10 0.224 "나중에 기생충 정부 영화 한편 나오겠네. ~
## # ... with 5,318 more rows
```
…
---

#### 토픽 이름과 주요 단어 시각화하기

```r
# 토픽 이름 결합하기
top_term_topic_name <- top_term_topic %>%
  left_join(name_topic, name_topic, by = "topic")

top_term_topic_name
```

```
## # A tibble: 83 x 4
## # Groups:   topic [8]
##    topic term        beta name                                 
##    <int> <chr>      <dbl> <chr>                                
##  1     1 작품     0.0299  1. 작품상 수상 축하, 정치적 댓글 비판
##  2     1 진심     0.0240  1. 작품상 수상 축하, 정치적 댓글 비판
##  3     1 정치     0.0192  1. 작품상 수상 축하, 정치적 댓글 비판
##  4     1 자랑     0.0181  1. 작품상 수상 축하, 정치적 댓글 비판
##  5     1 수상소감 0.0166  1. 작품상 수상 축하, 정치적 댓글 비판
##  6     1 댓글     0.0151  1. 작품상 수상 축하, 정치적 댓글 비판
##  7     1 외국     0.0122  1. 작품상 수상 축하, 정치적 댓글 비판
##  8     1 경사     0.0107  1. 작품상 수상 축하, 정치적 댓글 비판
##  9     1 훌륭     0.00998 1. 작품상 수상 축하, 정치적 댓글 비판
## 10     1 좌파     0.00814 1. 작품상 수상 축하, 정치적 댓글 비판
## # ... with 73 more rows
```
…
---

- 토픽 수를 8개로 지정해 만든 모델과 동일

<br-back-30>

.pull-left[

```r
# optimal_model
tidy(optimal_model, matrix = "beta")
```

```
## # A tibble: 47,960 x 3
##    topic term       beta
##    <int> <chr>     <dbl>
##  1     1 한국  0.000405 
##  2     2 한국  0.0000364
##  3     3 한국  0.0000353
##  4     4 한국  0.00295  
##  5     5 한국  0.0000353
##  6     6 한국  0.0000356
##  7     7 한국  0.00661  
##  8     8 한국  0.0593   
##  9     1 자랑  0.0181   
## 10     2 자랑  0.00440  
## # ... with 47,950 more rows
```
]
.pull-right[

```r
# lda_model
tidy(lda_model, matrix = "beta")
```

```
## # A tibble: 47,960 x 3
##    topic term       beta
##    <int> <chr>     <dbl>
##  1     1 한국  0.000405 
##  2     2 한국  0.0000364
##  3     3 한국  0.0000353
##  4     4 한국  0.00295  
##  5     5 한국  0.0000353
##  6     6 한국  0.0000356
##  7     7 한국  0.00661  
##  8     8 한국  0.0593   
##  9     1 자랑  0.0181   
## 10     2 자랑  0.00440  
## # ... with 47,950 more rows
```
…
# 토픽별 beta 상위 단어 추출
top_term_topic <- term_topic %>%
  group_by(topic) %>%
  slice_max(beta, n = 10)

top_term_topic
```

---

```
## # A tibble: 94 x 3
## # Groups:   topic [9]
##    topic term     beta
##    <int> <chr>   <dbl>
##  1     1 요구  0.00501
##  2     1 주장  0.00472
##  3     1 자신  0.00454
##  4     1 토론  0.00436
##  5     1 권력  0.00419
##  6     1 자체  0.00413
##  7     1 반대  0.00401
##  8     1 결단  0.00389
##  9     1 어렵  0.00383
## 10     1 선거  0.00377
## # ... with 84 more rows
```
…
---

Q11. 문서가 가장 많은 토픽의 연설문을 gamma가 높은 순으로 출력하고 내용이 비슷한지 살펴보세요.

```r
speeches_topic %>%
  filter(topic == 9) %>%
  arrange(-gamma) %>%
  select(content)
```

```
## # A tibble: 148 x 1
##    content                                        
##    <chr>                                          
##  1 안녕하십니까, 이처럼 따뜻하게 맞아주셔서 감사~ 
##  2 존경하는 룰라 대통령 각하 내외분, 그리고 귀빈 ~
##  3 존경하는 압델아지즈 부테플리카 알제리 대통령 ~ 
##  4 존경하는 압둘 라흐만 알 라쉬드 상의연합회 회장~
##  5 존경하는 바세스쿠 대통령 각하, 그리고 귀빈 여~ 
##  6 존경하는 일함 알리예프 대통령 각하 내외분, 그~ 
##  7 존경하는 키르츠네르 대통령 각하 내외분, 그리고~
##  8 존경하는,카리모프, 대통령 각하 내외분, 그리고 ~
##  9 2005년 5월 10일 존경하는 카리모프 대통령 각하 ~
## 10 존경하는 빌토르 바비욱 루마니아 상공회의소 회~ 
## # ... with 138 more rows
```
