Do it! 쉽게 배우는 R 텍스트 마이닝 - 01 단어 빈도 분석
…
---

#### 데이터를 tibble 구조로 바꾸기

##### 문자열 벡터를 tibble 구조로 바꾸기 - `as_tibble()`

```r
library(dplyr)
moon <- as_tibble(moon)
moon
```

```
## # A tibble: 117 x 1
##    value                                                              
##    <chr>                                                              
##  1 "정권교체 하겠습니다"                                              
##  2 "정치교체 하겠습니다"                                              
##  3 "시대교체 하겠습니다"                                              
##  4 ""                                                                 
##  5 "불비불명 이라는 고사가 있습니다 남쪽 언덕 나뭇가지에 앉아 년 동안 날지도 울지도 않는 새 그러나 그 새는 한번 날면…
##  6 ""                                                                 
##  7 "그 동안 정치와 거리를 둬 왔습니다 그러나 암울한 시대가 저를 정치로 불러냈습니다 더 이상 남쪽 나뭇가지에 머무를 수…
##  8 ""                                                                 
##  9 ""                                                                 
## 10 "우리나라 대통령 이 되겠습니다"                                    
## # … with 107 more rows
```
…
---

##### 연설문 토큰화하기

```r
word_space <- moon %>%
  unnest_tokens(input = value,
                output = word,
                token = "words")

word_space
```

```
## # A tibble: 2,025 x 1
##    word      
##    <chr>     
##  1 정권교체  
##  2 하겠습니다
##  3 정치교체  
##  4 하겠습니다
##  5 시대교체  
##  6 하겠습니다
##  7 불비불명  
##  8 이라는    
##  9 고사가    
## 10 있습니다  
## # … with 2,015 more rows
```
…
---

#### 단어 빈도 구하기 - `count()`

```r
word_space <- word_space %>%
 count(word, sort = T)

word_space
```

```
## # A tibble: 1,440 x 2
##    word             n
##    <chr>        <int>
##  1 합니다          27
##  2 수              16
##  3 있습니다        13
##  4 저는            13
##  5 등              12
##  6 있는            12
##  7 함께            12
##  8 만들겠습니다    11
##  9 일자리          10
## 10 국민의           9
## # … with 1,430 more rows
```
…
---
##### 두 글자 이상만 남기기

```r
word_space <- word_space %>%
 filter(str_count(word) > 1)

word_space
```

```
## # A tibble: 1,384 x 2
##    word             n
##    <chr>        <int>
##  1 합니다          27
##  2 있습니다        13
##  3 저는            13
##  4 있는            12
##  5 함께            12
##  6 만들겠습니다    11
##  7 일자리          10
##  8 국민의           9
##  9 우리             9
## 10 우리나라         9
## # … with 1,374 more rows
```
…
park
```

---

Q1. `speech_park.txt`를 불러와 분석에 적합하게 전처리한 다음 띄어쓰기 기준으로 토큰화하세요.

```
## # A tibble: 96 x 1
##    value                                                              
##    <chr>                                                              
##  1 "존경하는 국민 여러분 저는 오늘 국민 한 분 한 분의 꿈이 이루어지는 행복한 대한민국을 만들기 위해 저의 모든 것을 …
##  2 ""                                                                 
##  3 "국민 여러분 저의 삶은 대한민국과 함께 해온 시간이었습니다 우리나라가 가난을 이기고 꿈을 이뤄가는 위대한 과정을 어린…
##  4 ""                                                                 
##  5 "어머니가 흉탄에 돌아가신 후 견딜 수 없는 고통과 어려움 속에서도 그 힘든 시간을 이겨낼 수 있었던 것은 어머니의 빈…
##  6 ""                                                                 
##  7 "그때부터 제 삶은 완전히 다른 길을 가야했습니다 개인의 삶 대신 국민과 함께 하는 공적인 삶이 시작되었습니다 각계각층…
##  8 ""                                                                 
##  9 "아버지를 잃는 또 다른 고통과 아픔을 겪고 저는 평범한 삶을 살고자 했습니다 하지만 국민들의 땀과 눈물로 이룩해 온 …
## 10 ""                                                                 
## # … with 86 more rows
```
…
Q1. `speech_park.txt`를 불러와 분석에 적합하게 전처리한 다음 띄어쓰기 기준으로 토큰화하세요.

```r
# 토큰화
library(tidytext)
word_space <- park %>%
  unnest_tokens(input = value,
                output = word,
                token = "words")  # 띄어쓰기 기준

word_space
```

```
## # A tibble: 1,414 x 1
##    word    
##    <chr>   
##  1 존경하는
##  2 국민    
##  3 여러분  
##  4 저는    
##  5 오늘    
##  6 국민    
##  7 한      
##  8 분      
##  9 한      
## 10 분의    
## # … with 1,404 more rows
```
…
