Do it! 쉽게 배우는 R 텍스트 마이닝 - 02 형태소 분석기를 이용한 단어 빈도 분석
…
```r
library(stringr)

moon <- raw_moon %>%
  str_replace_all("[^가-힣]", " ") %>%  # 한글만 남기기
  str_squish() %>%                      # 중복 공백 제거
  as_tibble()                           # tibble로 변환

moon
```

---

```
## # A tibble: 117 x 1
##    value                                                              
##    <chr>                                                              
##  1 "정권교체 하겠습니다"                                              
##  2 "정치교체 하겠습니다"                                              
##  3 "시대교체 하겠습니다"                                              
##  4 ""                                                                 
##  5 "불비불명 이라는 고사가 있습니다 남쪽 언덕 나뭇가지에 앉아 년 동안~
##  6 ""                                                                 
##  7 "그 동안 정치와 거리를 둬 왔습니다 그러나 암울한 시대가 저를 정치~ 
##  8 ""                                                                 
##  9 ""                                                                 
## 10 "우리나라 대통령 이 되겠습니다"                                    
## # ... with 107 more rows
```
---

##### 명사 기준 토큰화

```r
word_noun <- moon %>%
  unnest_tokens(input = value,
                output = word,
                token = extractNoun)

word_noun
```

```
## # A tibble: 1,757 x 1
##    word      
##    <chr>     
##  1 "정권교체"
##  2 "하겠습니"
##  3 "정치"    
##  4 "교체"    
##  5 "하겠습니"
##  6 "시대"    
##  7 "교체"    
##  8 "하겠습니"
##  9 ""        
## 10 "불비불명"
## # ... with 1,747 more rows
```
…
##### 단어 빈도 구하기

- 빈도가 높은 명사를 보면 글쓴이가 무엇을 강조했는지 알 수 있음
- `# A tibble: 704 x 2`: 연설문이 704개의 명사로 구성됨

```r
word_noun <- word_noun %>%
  count(word, sort = T) %>%    # 단어 빈도 구해 내림차순 정렬
  filter(str_count(word) > 1)  # 두 글자 이상만 남기기

word_noun
```

```
## # A tibble: 704 x 2
##    word       n
##    <chr>  <int>
##  1 국민      21
##  2 일자리    21
##  3 나라      19
##  4 우리      17
##  5 경제      15
##  6 사회      14
##  7 성장      13
##  8 대통령    12
##  9 정치      12
## 10 하게      12
## # ... with 694 more rows
```
…
.pull-left[

##### 띄어쓰기 기준 추출

```r
moon %>%
  unnest_tokens(input = value,
                output = word,
*               token = "words") %>%
  count(word, sort = T) %>%
  filter(str_count(word) > 1)
```

```
## # A tibble: 1,384 x 2
##    word             n
##    <chr>        <int>
##  1 합니다          27
##  2 있습니다        13
##  3 저는            13
##  4 있는            12
##  5 함께            12
##  6 만들겠습니다    11
##  7 일자리          10
##  8 국민의           9
##  9 우리             9
## 10 우리나라         9
## # ... with 1,374 more rows
```
…
.pull-right[

##### 명사 추출

```r
moon %>%
  unnest_tokens(input = value,
                output = word,
*               token = extractNoun) %>%
  count(word, sort = T) %>%
  filter(str_count(word) > 1)
```

```
## # A tibble: 704 x 2
##    word       n
##    <chr>  <int>
##  1 국민      21
##  2 일자리    21
##  3 나라      19
##  4 우리      17
##  5 경제      15
##  6 사회      14
##  7 성장      13
##  8 대통령    12
##  9 정치      12
## 10 하게      12
## # ... with 694 more rows
```
…
sentences_moon
```

<svg viewBox="0 0 576 512" style="height:1em;position:relative;display:inline-block;top:.1em;fill:#FF7333;" xmlns="http://www.w3.org/2000/svg">  <path d="M569.517 440.013C587.975 472.007 564.806 512 527.94 512H48.054c-36.937 0-59.999-40.055-41.577-71.987L246.423 23.985c18.467-32.009 64.72-31.951 83.154 0l239.94 416.028zM288 354c-25.405 0-46 20.595-46 46s20.595 46 46 46 46-20.595 46-46-20.595-46-46-46zm-43.673-165.346l7.418 136c.347 6.364 5.609 11.346 11.982 11.346h48.546c6.373 0 11.635-4.982 11.982-11.346l7.418-136c.375-6.874-5.098-12.654-11.982-12.654h-63.383c-6.884 0-12.356 5.78-11.981 12.654z"></path></svg> 문장으로 토큰화할 때는 마침표가 문장의 기준점이 되므로 특수 문자 제거 X

---

```
## # A tibble: 207 x 1
##    sentence                                                           
##    <chr>                                                              
##  1 정권교체 하겠습니다!                                               
##  2 정치교체 하겠습니다!                                               
##  3 시대교체 하겠습니다!                                               
##  4 ‘불비불명(不飛不鳴)’이라는 고사가 있습니다.                        
##  5 남쪽 언덕 나뭇가지에 앉아, 3년 동안 날지도 울지도 않는 새.         
##  6 그러나 그 새는 한번 날면 하늘 끝까지 날고, 한번 울면 천지를 뒤흔듭~
##  7 그 동안 정치와 거리를 둬 왔습니다.                                 
##  8 그러나 암울한 시대가 저를 정치로 불러냈습니다.                     
##  9 더 이상 남쪽 나뭇가지에 머무를 수 없었습니다.                      
## 10 이제 저는 국민과 함께 높이 날고 크게 울겠습니다.                   
## # ... with 197 more rows
```
…
park
```

---

Q1. `speech_park.txt`를 불러와 분석에 적합하게 전처리한 다음 연설문에서 명사를 추출하세요.

```
## # A tibble: 96 x 1
##    value                                                              
##    <chr>                                                              
##  1 "존경하는 국민 여러분 저는 오늘 국민 한 분 한 분의 꿈이 이루어지는~
##  2 ""                                                                 
##  3 "국민 여러분 저의 삶은 대한민국과 함께 해온 시간이었습니다 우리나~ 
##  4 ""                                                                 
##  5 "어머니가 흉탄에 돌아가신 후 견딜 수 없는 고통과 어려움 속에서도 ~ 
##  6 ""                                                                 
##  7 "그때부터 제 삶은 완전히 다른 길을 가야했습니다 개인의 삶 대신 국~ 
##  8 ""                                                                 
##  9 "아버지를 잃는 또 다른 고통과 아픔을 겪고 저는 평범한 삶을 살고자 ~
## 10 ""                                                                 
## # ... with 86 more rows
```
…
```r
# 명사 기준 토큰화
library(tidytext)
library(KoNLP)

word_noun <- park %>%
  unnest_tokens(input = value,
                output = word,
                token = extractNoun)

word_noun
```

```
## # A tibble: 1,240 x 1
##    word  
##    <chr> 
##  1 존경  
##  2 하    
##  3 국민  
##  4 여러분
##  5 저    
##  6 오늘  
##  7 국민  
##  8 한    
##  9 분    
## 10 한    
## # ... with 1,230 more rows
```
…
.scroll-box-26[

```r
sentences_park <- raw_park %>%
  str_squish() %>%                    # 연속된 공백 제거
  as_tibble() %>%                     # tibble로 변환
  unnest_tokens(input = value,
                output = sentence,
                token = "sentences")

sentences_park
```

```
## # A tibble: 119 x 1
##    sentence                                                           
##    <chr>                                                              
##  1 존경하는 국민 여러분!                                              
##  2 저는 오늘, 국민 한 분 한 분의 꿈이 이루어지는 행복한 대한민국을 만~
##  3 저 박근혜, 이번 18대 대통령선거 출마를 선언합니다.                 
##  4 국민 여러분!                                                       
##  5 저의 삶은 대한민국과 함께 해온 시간이었습니다.                     
##  6 우리나라가 가난을 이기고, 꿈을 이뤄가는 위대한 과정을 어린 시절부~ 
##  7 어머니가 흉탄에 돌아가신 후, 견딜 수 없는 고통과 어려움 속에서도 ~ 
##  8 그리고 늘 함께 해주시고 힘이 되어 주셨던 국민 여러분이 계셨기 때문~
##  9 제가 그 막중한 일을 해내고, 고통을 이겨내고 다시 일어설 수 있었던 ~
## 10 그때부터 제 삶은 완전히 다른 길을 가야했습니다.                    
## # ... with 109 more rows
```
…
