Do it! 쉽게 배우는 R 텍스트 마이닝 - 03 비교 분석: 무엇이 다를까?
…
```r
# 기본적인 전처리
library(stringr)
speeches <- bind_speeches %>%
  mutate(value = str_replace_all(value, "[^가-힣]", " "),
         value = str_squish(value))

speeches
```
---

```
## # A tibble: 213 x 2
##    president value                                
##    <chr>     <chr>                                
##  1 moon      "정권교체 하겠습니다"                
##  2 moon      "정치교체 하겠습니다"                
##  3 moon      "시대교체 하겠습니다"                
##  4 moon      ""                                   
##  5 moon      "불비불명 이라는 고사가 있습니다 남쪽 언덕 나뭇가지에 앉아 년 …
##  6 moon      ""                                   
##  7 moon      "그 동안 정치와 거리를 둬 왔습니다 그러나 암울한 시대가 저를 …
##  8 moon      ""                                   
##  9 moon      ""                                   
## 10 moon      "우리나라 대통령 이 되겠습니다"      
## # … with 203 more rows
```
…
speeches <- speeches %>%
  unnest_tokens(input = value,
                output = word,
                token = extractNoun)

speeches
```

---

```
## # A tibble: 2,997 x 2
##    president word      
##    <chr>     <chr>     
##  1 moon      "정권교체"
##  2 moon      "하겠습니"
##  3 moon      "정치"    
##  4 moon      "교체"    
##  5 moon      "하겠습니"
##  6 moon      "시대"    
##  7 moon      "교체"    
##  8 moon      "하겠습니"
##  9 moon      ""        
## 10 moon      "불비불명"
## # … with 2,987 more rows
```
…
```r
df <- tibble(x = c(1:100))
```

<br-back-20>

.pull-left[

```r
df
```

```
## # A tibble: 100 x 1
##        x
##    <int>
##  1     1
##  2     2
##  3     3
##  4     4
##  5     5
##  6     6
##  7     7
##  8     8
##  9     9
## 10    10
## # … with 90 more rows
```
…
---

#### 단어 빈도 동점 처리

- 두 연설문에서 단어 10개씩 추출했는데 20행이 아니라 22행
- 단어 빈도 동점인 행이 전부 추출되었기 때문

```r
top10
```

```
*## # A tibble: 22 x 3
## # Groups:   president [2]
##    president word       n
##    <chr>     <chr>  <int>
##  1 moon      국민      21
##  2 moon      일자리    21
##  3 moon      나라      19
##  4 moon      우리      17
##  5 moon      경제      15
##  6 moon      사회      14
##  7 moon      성장      13
##  8 moon      대통령    12
##  9 moon      정치      12
## 10 moon      하게      12
## # … with 12 more rows
```
…
---

##### 연설문 단어 빈도를 Wide form으로 변환하기

```r
frequency_wide <- frequency %>%
  pivot_wider(names_from = president,
              values_from = n,
              values_fill = list(n = 0))

frequency_wide
```

```
## # A tibble: 955 x 3
##    word      moon  park
##    <chr>    <int> <int>
##  1 가동         1     0
##  2 가사         1     0
##  3 가슴         2     0
##  4 가족         1     1
##  5 가족구조     1     0
##  6 가지         4     0
##  7 가치         3     1
##  8 각종         1     0
##  9 감당         1     0
## 10 강력         3     0
## # … with 945 more rows
```
…
##### 1. 단어의 비중을 나타낸 변수 추가하기

- 각 단어가 두 연설문에서 차지하는 비중을 나타낸 변수
- 연설문별로 '각 단어의 빈도'를 '모든 단어 빈도의 합'으로 나눔

```r
frequency_wide <- frequency_wide %>%
  mutate(ratio_moon = ((moon)/(sum(moon))),  # moon 에서 단어의 비중
         ratio_park = ((park)/(sum(park))))  # park 에서 단어의 비중

frequency_wide
```

```
## # A tibble: 955 x 5
##    word      moon  park ratio_moon ratio_park
##    <chr>    <int> <int>      <dbl>      <dbl>
##  1 가동         1     0   0.000749    0      
##  2 가사         1     0   0.000749    0      
##  3 가슴         2     0   0.00150     0      
##  4 가족         1     1   0.000749    0.00117
##  5 가족구조     1     0   0.000749    0      
##  6 가지         4     0   0.00299     0      
##  7 가치         3     1   0.00225     0.00117
##  8 각종         1     0   0.000749    0      
##  9 감당         1     0   0.000749    0      
## 10 강력         3     0   0.00225     0      
## # … with 945 more rows
```
…
- 어떤 단어가 한 연설문에 전혀 사용되지 않으면 빈도 0, 오즈비 0, 단어 비중 비교 불가
  - 빈도가 0보다 큰 값이 되도록 모든 값에 `+1`

```r
frequency_wide <- frequency_wide %>%
  mutate(ratio_moon  = ((moon + 1)/(sum(moon + 1))),  # moon에서 단어의 비중
         ratio_park  = ((park + 1)/(sum(park + 1))))  # park에서 단어의 비중

frequency_wide
```

```
## # A tibble: 955 x 5
##    word      moon  park ratio_moon ratio_park
##    <chr>    <int> <int>      <dbl>      <dbl>
##  1 가동         1     0   0.000873   0.000552
##  2 가사         1     0   0.000873   0.000552
##  3 가슴         2     0   0.00131    0.000552
##  4 가족         1     1   0.000873   0.00110 
##  5 가족구조     1     0   0.000873   0.000552
##  6 가지         4     0   0.00218    0.000552
##  7 가치         3     1   0.00175    0.00110 
##  8 각종         1     0   0.000873   0.000552
##  9 감당         1     0   0.000873   0.000552
## 10 강력         3     0   0.00175    0.000552
## # … with 945 more rows
```
---

#### 2. 오즈비 변수 추가하기

- 한 텍스트의 단어 비중을 다른 텍스트의 단어 비중으로 나눔

```r
frequency_wide <- frequency_wide %>%
  mutate(odds_ratio = ratio_moon/ratio_park)

frequency_wide
```

```
## # A tibble: 955 x 6
##    word      moon  park ratio_moon ratio_park odds_ratio
##    <chr>    <int> <int>      <dbl>      <dbl>      <dbl>
##  1 가동         1     0   0.000873   0.000552      1.58 
##  2 가사         1     0   0.000873   0.000552      1.58 
##  3 가슴         2     0   0.00131    0.000552      2.37 
##  4 가족         1     1   0.000873   0.00110       0.791
##  5 가족구조     1     0   0.000873   0.000552      1.58 
##  6 가지         4     0   0.00218    0.000552      3.96 
##  7 가치         3     1   0.00175    0.00110       1.58 
##  8 각종         1     0   0.000873   0.000552      1.58 
##  9 감당         1     0   0.000873   0.000552      1.58 
## 10 강력         3     0   0.00175    0.000552      3.17 
## # … with 945 more rows
```

---

- 오즈비를 보면 단어가 어떤 텍스트에서 상대적으로 더 많이 사용됐는지 알 수 있음
  - **`"moon"`에서 상대적인 비중 클수록 1보다 큰 값**
  - `"park"`에서 상대적인 비중 클수록 1보다 작은 값
  - 두 연설문에서 단어 비중 같으면 1

```r
frequency_wide %>%
* arrange(-odds_ratio)
```

```
## # A tibble: 955 x 6
##    word      moon  park ratio_moon ratio_park odds_ratio
##    <chr>    <int> <int>      <dbl>      <dbl>      <dbl>
##  1 복지국가     8     0    0.00393   0.000552       7.12
##  2 세상         6     0    0.00306   0.000552       5.54
##  3 여성         6     0    0.00306   0.000552       5.54
##  4 정의         6     0    0.00306   0.000552       5.54
##  5 강자         5     0    0.00262   0.000552       4.75
##  6 공평         5     0    0.00262   0.000552       4.75
##  7 대통령의     5     0    0.00262   0.000552       4.75
##  8 보통         5     0    0.00262   0.000552       4.75
##  9 상생         5     0    0.00262   0.000552       4.75
## 10 지방         5     0    0.00262   0.000552       4.75
## # … with 945 more rows
```

---

- 오즈비를 보면 단어가 어떤 텍스트에서 상대적으로 더 많이 사용됐는지 알 수 있음
  - `"moon"`에서 상대적인 비중 클수록 1보다 큰 값
  - **`"park"`에서 상대적인 비중 클수록 1보다 작은 값**
  - 두 연설문에서 단어 비중 같으면 1

```r
frequency_wide %>%
* arrange(odds_ratio)
```

```
## # A tibble: 955 x 6
##    word      moon  park ratio_moon ratio_park odds_ratio
##    <chr>    <int> <int>      <dbl>      <dbl>      <dbl>
##  1 박근혜       0     8   0.000436    0.00496     0.0879
##  2 여러분       2    20   0.00131     0.0116      0.113 
##  3 행복         3    23   0.00175     0.0132      0.132 
##  4 실천         0     5   0.000436    0.00331     0.132 
##  5 정보         0     5   0.000436    0.00331     0.132 
##  6 투명         0     5   0.000436    0.00331     0.132 
##  7 과제         0     4   0.000436    0.00276     0.158 
##  8 국정운영     0     4   0.000436    0.00276     0.158 
##  9 시작         0     4   0.000436    0.00276     0.158 
## 10 지식         0     4   0.000436    0.00276     0.158 
## # … with 945 more rows
```

---

- 오즈비를 보면 단어가 어떤 텍스트에서 상대적으로 더 많이 사용됐는지 알 수 있음
  - `"moon"`에서 상대적인 비중 클수록 1보다 큰 값
  - `"park"`에서 상대적인 비중 클수록 1보다 작은 값
  - **두 연설문에서 단어 비중 같으면 1**

```r
frequency_wide %>%
* arrange(abs(1 - odds_ratio))
```

```
## # A tibble: 955 x 6
##    word    moon  park ratio_moon ratio_park odds_ratio
##    <chr>  <int> <int>      <dbl>      <dbl>      <dbl>
##  1 때문       4     3    0.00218    0.00221      0.989
##  2 강화       3     2    0.00175    0.00165      1.06 
##  3 부담       3     2    0.00175    0.00165      1.06 
##  4 세계       3     2    0.00175    0.00165      1.06 
##  5 책임       3     2    0.00175    0.00165      1.06 
##  6 협력       3     2    0.00175    0.00165      1.06 
##  7 거대       2     1    0.00131    0.00110      1.19 
##  8 교체       2     1    0.00131    0.00110      1.19 
##  9 근본적     2     1    0.00131    0.00110      1.19 
## 10 기반       2     1    0.00131    0.00110      1.19 
## # … with 945 more rows
```
…
#### 막대 그래프 만들기

##### 1. 비중이 큰 연설문을 나타낸 변수 추가하기

```r
top10 <- top10 %>%
  mutate(president = ifelse(odds_ratio > 1, "moon", "park"),
         n = ifelse(odds_ratio > 1, moon, park))

top10
```

```
## # A tibble: 20 x 8
##    word      moon  park ratio_moon ratio_park odds_ratio president     n
##    <chr>    <int> <int>      <dbl>      <dbl>      <dbl> <chr>     <int>
##  1 강자         5     0    0.00262   0.000552      4.75  moon          5
##  2 공평         5     0    0.00262   0.000552      4.75  moon          5
##  3 대통령의     5     0    0.00262   0.000552      4.75  moon          5
##  4 보통         5     0    0.00262   0.000552      4.75  moon          5
##  5 복지국가     8     0    0.00393   0.000552      7.12  moon          8
##  6 상생         5     0    0.00262   0.000552      4.75  moon          5
##  7 세상         6     0    0.00306   0.000552      5.54  moon          6
##  8 여러분       2    20    0.00131   0.0116        0.113 park         20
##  9 여성         6     0    0.00306   0.000552      5.54  moon          6
## 10 정의         6     0    0.00306   0.000552      5.54  moon          6
## # … with 10 more rows
```
…
##### 1. 원문을 문장 기준으로 토큰화하기

```r
speeches_sentence <- bind_speeches %>%
  as_tibble() %>%
  unnest_tokens(input = value,
                output = sentence,
                token = "sentences")

speeches_sentence
```

```
## # A tibble: 329 x 2
##   president sentence                    
##   <chr>     <chr>                       
## 1 moon      "정권교체 하겠습니다!"      
## 2 moon      "정치교체 하겠습니다!"      
## 3 moon      "시대교체 하겠습니다!"      
## 4 moon      ""                          
## 5 moon      "‘불비불명(不飛不鳴)’이라는 고사가 있습니다."…
## 6 moon      "남쪽 언덕 나뭇가지에 앉아, 3년 동안 날지도 …
## 7 moon      "그러나 그 새는 한번 날면 하늘 끝까지 날고, …
## 8 moon      "그 동안 정치와 거리를 둬 왔습니다."…
## # … with 321 more rows
```
…
---

#### 2. 주요 단어가 사용된 문장 추출하기 - `str_detect()`

```
## # A tibble: 19 x 2
##    president sentence                             
##    <chr>     <chr>                                
##  1 park      저는 오늘, 국민 한 분 한 분의 꿈이 이루어지는 행복한 대한민국…
##  2 park      국가는 발전했고, 경제는 성장했다는데, 나의 삶은 나아지지 않았고…
##  3 park      과거에는 국가의 발전이 국민의 행복으로 이어졌습니다.…
##  4 park      개인의 창의력이 중요한 지식기반사회에서는 국민 한 사람, 한 사람…
##  5 park      이제 국정운영의 패러다임을 국가에서 국민으로, 개인의 삶과 행복 …
##  6 park      국민 개개인의 꿈을 향한 노력이 국가를 발전시키고 국가 발전이 국…
##  7 park      저는 ‘경제민주화 실현’, ‘일자리 창출’, 그리고 ‘한국형 복지…
##  8 park      국민행복의 길을 열어갈 첫 번째 과제로, 저는 경제민주화를 통해 …
##  9 park      국민행복의 길을 열어갈 두 번째 과제로, 저는 좋은 일자리 창출을…
## 10 park      국민행복의 길을 열어갈 세 번째 과제로, 우리의 실정에 맞으면서 …
## # … with 9 more rows
```
…
<img src="Image/03/03_3_1.png" width="60%" height="60%" />
---

#### 로그 오즈비 구하기

```r
frequency_wide <- frequency_wide %>%
  mutate(log_odds_ratio = log(odds_ratio))

frequency_wide
```

```
## # A tibble: 955 x 7
##    word      moon  park ratio_moon ratio_park odds_ratio log_odds_ratio
##    <chr>    <int> <int>      <dbl>      <dbl>      <dbl>          <dbl>
##  1 가동         1     0   0.000873   0.000552      1.58           0.459
##  2 가사         1     0   0.000873   0.000552      1.58           0.459
##  3 가슴         2     0   0.00131    0.000552      2.37           0.865
##  4 가족         1     1   0.000873   0.00110       0.791         -0.234
##  5 가족구조     1     0   0.000873   0.000552      1.58           0.459
##  6 가지         4     0   0.00218    0.000552      3.96           1.38 
##  7 가치         3     1   0.00175    0.00110       1.58           0.459
##  8 각종         1     0   0.000873   0.000552      1.58           0.459
##  9 감당         1     0   0.000873   0.000552      1.58           0.459
## 10 강력         3     0   0.00175    0.000552      3.17           1.15 
## # … with 945 more rows
```
…
---

- 부호와 크기를 보면 단어가 어느 연설문에서 더 중요한지 알 수 있음
  - **0보다 큰 양수일수록 `"moon`"에서 비중이 큼**
  - 0보다 작은 음수일수록 `"park"`에서 비중이 큼
  - 0에 가까우면 두 연설문에서 비중 비슷함

```r
# moon에서 비중이 큰 단어
frequency_wide %>%
* arrange(-log_odds_ratio)
```

```
## # A tibble: 955 x 7
##    word      moon  park ratio_moon ratio_park odds_ratio log_odds_ratio
##    <chr>    <int> <int>      <dbl>      <dbl>      <dbl>          <dbl>
##  1 복지국가     8     0    0.00393   0.000552       7.12           1.96
##  2 세상         6     0    0.00306   0.000552       5.54           1.71
##  3 여성         6     0    0.00306   0.000552       5.54           1.71
##  4 정의         6     0    0.00306   0.000552       5.54           1.71
##  5 강자         5     0    0.00262   0.000552       4.75           1.56
##  6 공평         5     0    0.00262   0.000552       4.75           1.56
##  7 대통령의     5     0    0.00262   0.000552       4.75           1.56
##  8 보통         5     0    0.00262   0.000552       4.75           1.56
##  9 상생         5     0    0.00262   0.000552       4.75           1.56
## 10 지방         5     0    0.00262   0.000552       4.75           1.56
## # … with 945 more rows
```
---

- 부호와 크기를 보면 단어가 어느 연설문에서 더 중요한지 알 수 있음
  - 0보다 큰 양수일수록 `"moon`"에서 비중이 큼
  - **0보다 작은 음수일수록 `"park"`에서 비중이 큼**
  - 0에 가까우면 두 연설문에서 비중 비슷함

```r
# park에서 비중이 큰 단어
frequency_wide %>%
* arrange(log_odds_ratio)
```

```
## # A tibble: 955 x 7
##    word      moon  park ratio_moon ratio_park odds_ratio log_odds_ratio
##    <chr>    <int> <int>      <dbl>      <dbl>      <dbl>          <dbl>
##  1 박근혜       0     8   0.000436    0.00496     0.0879          -2.43
##  2 여러분       2    20   0.00131     0.0116      0.113           -2.18
##  3 행복         3    23   0.00175     0.0132      0.132           -2.03
##  4 실천         0     5   0.000436    0.00331     0.132           -2.03
##  5 정보         0     5   0.000436    0.00331     0.132           -2.03
##  6 투명         0     5   0.000436    0.00331     0.132           -2.03
##  7 과제         0     4   0.000436    0.00276     0.158           -1.84
##  8 국정운영     0     4   0.000436    0.00276     0.158           -1.84
##  9 시작         0     4   0.000436    0.00276     0.158           -1.84
## 10 지식         0     4   0.000436    0.00276     0.158           -1.84
## # … with 945 more rows
```
---

- 부호와 크기를 보면 단어가 어느 연설문에서 더 중요한지 알 수 있음
  - 0보다 큰 양수일수록 `"moon`"에서 비중이 큼
  - 0보다 작은 음수일수록 `"park"`에서 비중이 큼
  - **0에 가까우면 두 연설문에서 비중 비슷함**

```r
# 비중이 비슷한 단어
frequency_wide %>%
* arrange(abs(log_odds_ratio))
```

```
## # A tibble: 955 x 7
##    word    moon  park ratio_moon ratio_park odds_ratio log_odds_ratio
##    <chr>  <int> <int>      <dbl>      <dbl>      <dbl>          <dbl>
##  1 때문       4     3    0.00218    0.00221      0.989        -0.0109
##  2 강화       3     2    0.00175    0.00165      1.06          0.0537
##  3 부담       3     2    0.00175    0.00165      1.06          0.0537
##  4 세계       3     2    0.00175    0.00165      1.06          0.0537
##  5 책임       3     2    0.00175    0.00165      1.06          0.0537
##  6 협력       3     2    0.00175    0.00165      1.06          0.0537
##  7 거대       2     1    0.00131    0.00110      1.19          0.171 
##  8 교체       2     1    0.00131    0.00110      1.19          0.171 
##  9 근본적     2     1    0.00131    0.00110      1.19          0.171 
## 10 기반       2     1    0.00131    0.00110      1.19          0.171 
## # … with 945 more rows
```
…
---

##### 주요 변수 추출

```r
top10 %>%
  arrange(-log_odds_ratio) %>%
  select(word, log_odds_ratio, president)
```

```
## # A tibble: 20 x 3
## # Groups:   president [2]
##    word     log_odds_ratio president
##    <chr>             <dbl> <chr>    
##  1 복지국가           1.96 moon     
##  2 세상               1.71 moon     
##  3 여성               1.71 moon     
##  4 정의               1.71 moon     
##  5 강자               1.56 moon     
##  6 공평               1.56 moon     
##  7 대통령의           1.56 moon     
##  8 보통               1.56 moon     
##  9 상생               1.56 moon     
## 10 지방               1.56 moon     
## # … with 10 more rows
```
…
# 단어 빈도 구하기
frequecy <- speeches %>%
  count(president, word) %>%
  filter(str_count(word) > 1)

frequecy
```

---

```
## # A tibble: 1,513 x 3
##    president word      n
##    <chr>     <chr> <int>
##  1 노무현    가슴      2
##  2 노무현    가훈      2
##  3 노무현    갈등      1
##  4 노무현    감옥      1
##  5 노무현    강자      1
##  6 노무현    개편      4
##  7 노무현    개혁      4
##  8 노무현    건국      1
##  9 노무현    경선      1
## 10 노무현    경쟁      1
## # … with 1,503 more rows
```
…
```r
frequecy <- frequecy %>%
  bind_tf_idf(term = word,           # 단어
              document = president,  # 텍스트 구분 기준
              n = n) %>%             # 단어 빈도
  arrange(-tf_idf)

frequecy
```

---

```
## # A tibble: 1,513 x 6
##    president word         n      tf   idf tf_idf
##    <chr>     <chr>    <int>   <dbl> <dbl>  <dbl>
##  1 노무현    공식         6 0.0163  1.39  0.0227
##  2 노무현    비젼         6 0.0163  1.39  0.0227
##  3 노무현    정계         6 0.0163  1.39  0.0227
##  4 이명박    리더십       6 0.0158  1.39  0.0219
##  5 노무현    권력         9 0.0245  0.693 0.0170
##  6 노무현    개편         4 0.0109  1.39  0.0151
##  7 이명박    당원         4 0.0105  1.39  0.0146
##  8 이명박    동지         4 0.0105  1.39  0.0146
##  9 이명박    일류국가     4 0.0105  1.39  0.0146
## 10 박근혜    박근혜       8 0.00962 1.39  0.0133
## # … with 1,503 more rows
```
…
---

##### TF-IDF가 높은 단어 살펴보기

- 텍스트의 특징을 드러내는 중요한 단어
- 각 대통령이 다른 대통령들과 달리 무엇을 강조했는지 알 수 있음

```r
frequecy %>% filter(president == "문재인")
```

```
## # A tibble: 688 x 6
##    president word         n      tf   idf  tf_idf
##    <chr>     <chr>    <int>   <dbl> <dbl>   <dbl>
##  1 문재인    복지국가     8 0.00608 1.39  0.00843
##  2 문재인    여성         6 0.00456 1.39  0.00633
##  3 문재인    공평         5 0.00380 1.39  0.00527
##  4 문재인    담쟁이       5 0.00380 1.39  0.00527
##  5 문재인    대통령의     5 0.00380 1.39  0.00527
##  6 문재인    보통         5 0.00380 1.39  0.00527
##  7 문재인    상생         5 0.00380 1.39  0.00527
##  8 문재인    우리나라    10 0.00760 0.693 0.00527
##  9 문재인    지방         5 0.00380 1.39  0.00527
## 10 문재인    확대        10 0.00760 0.693 0.00527
## # … with 678 more rows
```

---

##### TF-IDF가 높은 단어 살펴보기

- 텍스트의 특징을 드러내는 중요한 단어
- 각 대통령이 다른 대통령들과 달리 무엇을 강조했는지 알 수 있음

```r
frequecy %>% filter(president == "박근혜")
```

```
## # A tibble: 407 x 6
##    president word         n      tf   idf  tf_idf
##    <chr>     <chr>    <int>   <dbl> <dbl>   <dbl>
##  1 박근혜    박근혜       8 0.00962 1.39  0.0133 
##  2 박근혜    정보         5 0.00601 1.39  0.00833
##  3 박근혜    투명         5 0.00601 1.39  0.00833
##  4 박근혜    행복        23 0.0276  0.288 0.00795
##  5 박근혜    교육         9 0.0108  0.693 0.00750
##  6 박근혜    국정운영     4 0.00481 1.39  0.00666
##  7 박근혜    정부        17 0.0204  0.288 0.00588
##  8 박근혜    개개인       3 0.00361 1.39  0.00500
##  9 박근혜    개인         3 0.00361 1.39  0.00500
## 10 박근혜    공개         3 0.00361 1.39  0.00500
## # … with 397 more rows
```

---

##### TF-IDF가 높은 단어 살펴보기

- 텍스트의 특징을 드러내는 중요한 단어
- 각 대통령이 다른 대통령들과 달리 무엇을 강조했는지 알 수 있음

```r
frequecy %>% filter(president == "이명박")
```

```
## # A tibble: 202 x 6
##    president word         n      tf   idf  tf_idf
##    <chr>     <chr>    <int>   <dbl> <dbl>   <dbl>
##  1 이명박    리더십       6 0.0158  1.39  0.0219 
##  2 이명박    당원         4 0.0105  1.39  0.0146 
##  3 이명박    동지         4 0.0105  1.39  0.0146 
##  4 이명박    일류국가     4 0.0105  1.39  0.0146 
##  5 이명박    한나라       7 0.0184  0.693 0.0128 
##  6 이명박    나라        15 0.0395  0.288 0.0114 
##  7 이명박    도약         3 0.00789 1.39  0.0109 
##  8 이명박    일하         3 0.00789 1.39  0.0109 
##  9 이명박    사랑         5 0.0132  0.693 0.00912
## 10 이명박    인생         5 0.0132  0.693 0.00912
## # … with 192 more rows
```
…
