Do it! 쉽게 배우는 R 텍스트 마이닝 - 04 감정 분석: 어떤 마음으로 글을 썼을까?
…
---

.pull-left[

```r
# 긍정 단어
dic %>%
  filter(polarity == 2) %>%
  arrange(word)
```

```
## # A tibble: 2,602 x 2
##    word              polarity
##    <chr>                <dbl>
##  1 가능성이 늘어나다        2
##  2 가능성이 있다고          2
##  3 가능하다                 2
##  4 가볍고 상쾌하다          2
##  5 가볍고 상쾌한            2
##  6 가볍고 시원하게          2
##  7 가볍고 편안하게          2
##  8 가볍고 환하게            2
##  9 가운데에서 뛰어남        2
## 10 가장 거룩한              2
## # … with 2,592 more rows
```
]

.pull-right[

```r
# 부정 단어
dic %>%
  filter(polarity == -2) %>%
  arrange(word)
```

```
## # A tibble: 4,799 x 2
##    word            polarity
##    <chr>              <dbl>
##  1 가난                  -2
##  2 가난뱅이              -2
##  3 가난살이              -2
##  4 가난살이하다          -2
##  5 가난설음              -2
##  6 가난에                -2
##  7 가난에 쪼들려서       -2
##  8 가난하게              -2
##  9 가난하고              -2
## 10 가난하고 어렵다       -2
## # … with 4,789 more rows
```
…
---

```r
# 이모티콘
library(stringr)
dic %>%
  filter(!str_detect(word, "[가-힣]")) %>%
  arrange(word)
```

```
## # A tibble: 77 x 2
##    word  polarity
##    <chr>    <dbl>
##  1 -_-^        -1
##  2 ;            1
##  3 ;-)          1
##  4 ;)           1
##  5 ;ㅅ;        -1
##  6 :-(          1
##  7 :-)          1
##  8 :-D         -1
##  9 :-P         -1
## 10 :'-(         1
## # … with 67 more rows
```
…
word_comment %>%
  select(word, reply)
```

---

```
## # A tibble: 37,718 x 2
##    word   reply                                   
##    <chr>  <chr>                                   
##  1 정말   정말 우리 집에 좋은 일이 생겨 기쁘고 행복한 것처럼!! 나의 일인 양…
##  2 우리   정말 우리 집에 좋은 일이 생겨 기쁘고 행복한 것처럼!! 나의 일인 양…
##  3 집에   정말 우리 집에 좋은 일이 생겨 기쁘고 행복한 것처럼!! 나의 일인 양…
##  4 좋은   정말 우리 집에 좋은 일이 생겨 기쁘고 행복한 것처럼!! 나의 일인 양…
##  5 일이   정말 우리 집에 좋은 일이 생겨 기쁘고 행복한 것처럼!! 나의 일인 양…
##  6 생겨   정말 우리 집에 좋은 일이 생겨 기쁘고 행복한 것처럼!! 나의 일인 양…
##  7 기쁘고 정말 우리 집에 좋은 일이 생겨 기쁘고 행복한 것처럼!! 나의 일인 양…
##  8 행복한 정말 우리 집에 좋은 일이 생겨 기쁘고 행복한 것처럼!! 나의 일인 양…
##  9 것처럼 정말 우리 집에 좋은 일이 생겨 기쁘고 행복한 것처럼!! 나의 일인 양…
## 10 나의   정말 우리 집에 좋은 일이 생겨 기쁘고 행복한 것처럼!! 나의 일인 양…
## # … with 37,708 more rows
```
---

```r
# 감정 점수 부여
word_comment <- word_comment %>%
  left_join(dic, by = "word") %>%
  mutate(polarity = ifelse(is.na(polarity), 0, polarity))

word_comment %>%
  select(word, polarity)
```

```
## # A tibble: 37,718 x 2
##    word   polarity
##    <chr>     <dbl>
##  1 정말          0
##  2 우리          0
##  3 집에          0
##  4 좋은          2
##  5 일이          0
##  6 생겨          0
##  7 기쁘고        2
##  8 행복한        2
##  9 것처럼        0
## 10 나의          0
## # … with 37,708 more rows
```
…
```r
score_comment <- word_comment %>%
  group_by(id, reply) %>%
  summarise(score = sum(polarity)) %>%
  ungroup()

score_comment %>%
  select(score, reply)
```

---

```
## # A tibble: 4,140 x 2
##    score reply                                    
##    <dbl> <chr>                                    
##  1     6 정말 우리 집에 좋은 일이 생겨 기쁘고 행복한 것처럼!! 나의 일인 양 …
##  2     6 와 너무 기쁘다! 이 시국에 정말 내 일같이 기쁘고 감사하다!!! 축하드…
##  3     4 우리나라의 영화감독분들 그리고 앞으로 그 꿈을 그리는 분들에게 큰 영감을…
##  4     3 봉준호 감독과 우리나라 대한민국 모두 자랑스럽다. 세계 어디를 가고 우리…
##  5     0 노벨상 탄느낌이네요 축하축하 합니다      
##  6     0 기생충 상 받을때 박수 쳤어요.감독상도 기대해요.봉준호 감독 화이팅^^…
##  7     0 대한민국 영화사를 새로 쓰고 계시네요 ㅊㅊㅊ…
##  8     0 저런게 아카데미상 받으면 '태극기 휘날리며'' '광해' '명량''은 전부…
##  9     0 다시한번 보여주세요 영화관에서 보고싶은디
## 10     2 대한민국 BTS와함께 봉준호감독님까지 대단하고 한국의 문화에 자긍심을 가…
## # … with 4,130 more rows
```

---

##### 2. 감정 점수 높은 댓글 살펴보기

```r
# 긍정 댓글
score_comment %>%
  select(score, reply) %>%
  arrange(-score)
```

```
## # A tibble: 4,140 x 2
##    score reply                                    
##    <dbl> <chr>                                    
##  1    11 아니 다른상을 받은것도 충분히 대단하고 굉장하지만 최고의 영예인 작품상을…
##  2     9 봉준호의 위대한 업적은 진보 영화계의 위대한 업적이고 대한민국의 업적입니…
##  3     7 이 수상소식을 듣고 억수로 기뻐하는 가족이 있을것 같다. SNS를 통해 …
##  4     7 감사 감사 감사 수상 소감도 3관왕 답네요  
##  5     6 정말 우리 집에 좋은 일이 생겨 기쁘고 행복한 것처럼!! 나의 일인 양 …
##  6     6 와 너무 기쁘다! 이 시국에 정말 내 일같이 기쁘고 감사하다!!! 축하드…
##  7     6 축하 축하 축하 모두들 수고 하셨어요 기생충 화이팅…
##  8     6 축하!!!! 축하!!!!! 오스카의 정복은 무엇보다 시나리오의 힘이다. …
##  9     6 조여정 ㆍ예쁜얼굴때문에 연기력을 제대로 평가받지 못해 안타깝던 내가 좋아…
## 10     6 좋은 걸 좋다고 말하지 못하는 인간들이 참 불쌍해지네....댓글 보니 인…
## # … with 4,130 more rows
```

---

##### 2. 감정 점수 높은 댓글 살펴보기

```r
# 부정 댓글
score_comment %>%
  select(score, reply) %>%
  arrange(score)
```

```
## # A tibble: 4,140 x 2
##    score reply                                    
##    <dbl> <chr>                                    
##  1    -7 기생충 영화 한국인 으로써 싫다 대단히 싫다!! 가난한 서민들의 마지막 …
##  2    -6 이 페미민국이 잘 되는 게 아주 싫다. 최악의 나쁜일들과 불운, 불행, …
##  3    -5 특정 인물의 성공을 국가의 부흥으로 연관짓는 것은 미개한 발상이다. 봉준…
##  4    -4 좌파들이 나라 망신 다 시킨다..ㅠ 설레발 오지게 치더니..꼴랑 각본상 …
##  5    -4 부패한 386 민주화 세대 정권의 무분별한 포퓰리즘으로 탄생한 좀비들의 …
##  6    -4 기생충 내용은 좋은데 제목이 그래요. 극 중 송강호가족이 부잣집에 대해서…
##  7    -4 이런 감독과 이런 배우보고 좌좀 이라고 지1랄하던 그분들 다 어디계시냐?…
##  8    -4 축하합니다. 근데 현실 세계인 한국에선 그보다 훨씬 나쁜 넘인 조로남불 …
##  9    -4 큰일이다....국제적 망신이다...전 세계사람들이 우리나라를 기생충으로 …
## 10    -4 더럽고 추잡한 그들만의 리그              
## # … with 4,130 more rows
```
…
