Do it! 쉽게 배우는 R 텍스트 마이닝 - 07 텍스트 마이닝 프로젝트: 타다 금지법 기사 댓글 분석
…
---

```r
frequency_wide %>%
  arrange(-log_odds_ratio)
```

```
## # A tibble: 11,115 x 5
##    word     dislike  like neutral log_odds_ratio
##    <chr>      <int> <int>   <int>          <dbl>
##  1 조합           0    25      12           2.79
##  2 승용차         0    11      11           2.01
##  3 타고           0    11       7           2.01
##  4 무능           0    10       5           1.93
##  5 마차           0     9      13           1.83
##  6 베트남         0     9       7           1.83
##  7 수수료         0     9       2           1.83
##  8 스타트업       0     9      18           1.83
##  9 전기           0     9       2           1.83
## 10 개혁           1    18      20           1.78
## # ... with 11,105 more rows
```
…
```r
# tf-idf 구하기
tfidf_category <- frequency_category %>%
  bind_tf_idf(term = word,
              document = category,
              n = n) %>%
  arrange(-tf_idf)

tfidf_category
```

---

```
## # A tibble: 4,145 x 6
##    category word         n      tf   idf  tf_idf
##    <chr>    <chr>    <int>   <dbl> <dbl>   <dbl>
##  1 국회의원 박홍근      12 0.00411 1.10  0.00451
##  2 국회의원 발의        10 0.00342 1.10  0.00376
##  3 정부     현정부       5 0.00204 1.10  0.00225
##  4 택시업계 대기업       4 0.00191 1.10  0.00210
##  5 택시업계 밥그릇      10 0.00479 0.405 0.00194
##  6 국회의원 기억         5 0.00171 1.10  0.00188
##  7 국회의원 만장일치     5 0.00171 1.10  0.00188
##  8 국회의원 명단         5 0.00171 1.10  0.00188
##  9 국회의원 투표         5 0.00171 1.10  0.00188
## 10 정부     가족         4 0.00164 1.10  0.00180
## # ... with 4,135 more rows
```
…
---

```r
separate_pos_tada %>%
  select(word)
```

```
## # A tibble: 55,567 x 1
##    word    
##    <chr>   
##  1 분단    
##  2 결론    
##  3 진정성  
##  4 결과적  
##  5 타다    
##  6 택시    
##  7 맞다    
##  8 택시업계
##  9 헌법위반
## 10 드론택배
## # ... with 55,557 more rows
```
…
##### 1.2 파이 계수 구하기

```r
library(widyr)
word_cors <- separate_pos_tada %>%
  add_count(word) %>%
  filter(n >= 20) %>%
  pairwise_cor(item = word, feature = id, sort = T)

word_cors
```

```
## # A tibble: 128,522 x 3
##    item1  item2  correlation
##    <chr>  <chr>        <dbl>
##  1 역행하 시대         0.408
##  2 시대   역행하       0.408
##  3 냄새   담배         0.333
##  4 담배   냄새         0.333
##  5 챙기다 밥그릇       0.293
##  6 밥그릇 챙기다       0.293
##  7 그랩   우버         0.286
##  8 우버   그랩         0.286
##  9 흐르다 시대         0.269
## 10 시대   흐르다       0.269
## # ... with 128,512 more rows
```
…
# 바이그램으로 토큰화
bigram_comment <- line_comment %>%
  unnest_tokens(input = sentence,
                output = bigram,
                token = "ngrams",
                n = 2)

bigram_comment
```

---

```
## # A tibble: 50,608 x 2
##       id bigram           
##    <int> <chr>            
##  1     1 분단 결론        
##  2     1 결론 진정성      
##  3     1 진정성 결과적    
##  4     1 결과적 타다      
##  5     1 타다 택시        
##  6     1 택시 맞다        
##  7     1 맞다 택시업계    
##  8     1 택시업계 헌법위반
##  9     1 헌법위반 드론택배
## 10     1 드론택배 불법    
## # ... with 50,598 more rows
```
…
```r
# 바이그램 분리하기
bigram_seprated <- bigram_comment %>%
  separate(bigram, c("word1", "word2"), sep = " ")

# 단어쌍 빈도 구하기
pair_bigram <- bigram_seprated %>%
  count(word1, word2, sort = T) %>%
  na.omit()

pair_bigram
```

```
## # A tibble: 43,244 x 3
##    word1 word2      n
##    <chr> <chr>  <int>
##  1 택시  타다     159
##  2 타다  타다      79
##  3 타다  택시      72
##  4 타다  혁신      49
##  5 타다  좋다      44
##  6 타다  불법      42
##  7 택시  서비스    37
##  8 타다  금지법    27
##  9 타다  다니다    27
## 10 택시  기사      27
## # ... with 43,234 more rows
```
…
##### 3. 댓글 내용 살펴보기

##### 3.1 `line_comment`에 `tada` 결합하기

```r
line_tada <- line_comment %>%
  left_join(tada, by = "id")

line_tada %>%
  select(sentence)
```

```
## # A tibble: 5,108 x 1
##    sentence                                       
##    <chr>                                          
##  1 분단 결론 진정성 결과적 타다 택시 맞다 택시업계 헌법위반 드론택배 불법 현재국기 ~
##  2 러다이트 운동 영국 중부 북부 직물공업지대 일어나다 기계 파괴운동 택시기사들 나중 ~
##  3 저런것들도 국회의원                            
##  4 우버 그랩 같다 서비스 자연 서비스 택시 서비스 자율경쟁 통하다 상생 제도 개선해 ~
##  5 택시승차거부하면 벌금 만원 때리다 근무복       
##  6 자율주행택시 나오다 택시기사들 뒤지다 왜이렇게 밥그릇 지키다~
##  7 옛말 고인 물다 썩다 택시기사들 꼬라지 고이다 상태 승차거부 시작해서 정치 이야기 ~
##  8 택시 자격증 따다 운행하면 모르다 자격증 운행   
##  9 편법 돈벌라는 양아치들 내주                    
## 10 똥남아보다 우리나라 네트웍 강국 맞다 택시 타다 태국 민주당 감성팔이 우치다보 나라~
## # ... with 5,098 more rows
```
…
