Do it! 쉽게 배우는 R 텍스트 마이닝 - 08 텍스트 마이닝 프로젝트: 차기 대선 주자 SNS 여론 분석
…
---

##### 2. 날짜 분류, 단어별 빈도 구하기

```r
frequency14 <- word_tweet_raw %>%
  mutate(category = ifelse(date == "2020-08-14", "target", "etc")) %>%
  filter(str_count(word) >= 2) %>%
  count(category, word, sort = T)

frequency14
```

```
## # A tibble: 59,382 x 3
##    category word         n
##    <chr>    <chr>    <int>
##  1 etc      이재명    2194
##  2 etc      이낙연    1928
##  3 target   이재명     791
##  4 target   이낙연     651
##  5 etc      이재명이   650
##  6 etc      이재명은   507
##  7 etc      민주당     396
##  8 etc      의원님     394
##  9 etc      코로나     349
## 10 target   이재명이   287
## # ... with 59,372 more rows
```
…
  filter(str_count(word) >= 2) %>%
  count(candidate, sentiment, word) %>%

  group_by(candidate, sentiment) %>%
  slice_max(n, n = 10, with_ties = F)

top10_word
```

---

```
## # A tibble: 60 x 4
## # Groups:   candidate, sentiment [6]
##    candidate sentiment word         n
##    <chr>     <chr>     <chr>    <int>
##  1 이낙연    긍정      좋은        32
##  2 이낙연    긍정      소중한      11
##  3 이낙연    긍정      좋다        11
##  4 이낙연    긍정      감사         8
##  5 이낙연    긍정      많다         8
##  6 이낙연    긍정      좋아하는     8
##  7 이낙연    긍정      최고         8
##  8 이낙연    긍정      훌륭한       8
##  9 이낙연    긍정      최고의       7
## 10 이낙연    긍정      좋아         6
## # ... with 50 more rows
```
…
